%YAML 1.1
%TAG !u! tag:unity3d.com,2011:
--- !u!1 &3253013968279829261
GameObject:
  m_ObjectHideFlags: 0
  m_CorrespondingSourceObject: {fileID: 0}
  m_PrefabInstance: {fileID: 0}
  m_PrefabAsset: {fileID: 0}
  serializedVersion: 6
  m_Component:
  - component: {fileID: 2898300609318710653}
  - component: {fileID: 6569259356419936623}
  - component: {fileID: 2750711790014769905}
  m_Layer: 31
  m_Name: Layer1
  m_TagString: Untagged
  m_Icon: {fileID: 0}
  m_NavMeshLayer: 0
  m_StaticEditorFlags: 0
  m_IsActive: 1
--- !u!4 &2898300609318710653
Transform:
  m_ObjectHideFlags: 0
  m_CorrespondingSourceObject: {fileID: 0}
  m_PrefabInstance: {fileID: 0}
  m_PrefabAsset: {fileID: 0}
  m_GameObject: {fileID: 3253013968279829261}
  m_LocalRotation: {x: -0, y: -0, z: -0, w: 1}
  m_LocalPosition: {x: 0, y: 0, z: 0}
  m_LocalScale: {x: 1, y: 1, z: 1}
  m_Children: []
  m_Father: {fileID: 2210753176247447438}
  m_RootOrder: 0
  m_LocalEulerAnglesHint: {x: 0, y: 0, z: 0}
--- !u!1839735485 &6569259356419936623
Tilemap:
  m_ObjectHideFlags: 0
  m_CorrespondingSourceObject: {fileID: 0}
  m_PrefabInstance: {fileID: 0}
  m_PrefabAsset: {fileID: 0}
  m_GameObject: {fileID: 3253013968279829261}
  m_Enabled: 1
  m_Tiles:
  - first: {x: -3, y: -11, z: 0}
    second:
      m_TileIndex: 144
      m_TileSpriteIndex: 144
      m_TileMatrixIndex: 0
      m_TileColorIndex: 0
      m_ObjectToInstantiate: {fileID: 0}
      m_TileFlags: 1
      m_ColliderType: 1
  - first: {x: -2, y: -11, z: 0}
    second:
      m_TileIndex: 145
      m_TileSpriteIndex: 145
      m_TileMatrixIndex: 0
      m_TileColorIndex: 0
      m_ObjectToInstantiate: {fileID: 0}
      m_TileFlags: 1
      m_ColliderType: 1
  - first: {x: -1, y: -11, z: 0}
    second:
      m_TileIndex: 146
      m_TileSpriteIndex: 146
      m_TileMatrixIndex: 0
      m_TileColorIndex: 0
      m_ObjectToInstantiate: {fileID: 0}
      m_TileFlags: 1
      m_ColliderType: 1
  - first: {x: 0, y: -11, z: 0}
    second:
      m_TileIndex: 147
      m_TileSpriteIndex: 147
      m_TileMatrixIndex: 0
      m_TileColorIndex: 0
      m_ObjectToInstantiate: {fileID: 0}
      m_TileFlags: 1
      m_ColliderType: 1
  - first: {x: 1, y: -11, z: 0}
    second:
      m_TileIndex: 148
      m_TileSpriteIndex: 148
      m_TileMatrixIndex: 0
      m_TileColorIndex: 0
      m_ObjectToInstantiate: {fileID: 0}
      m_TileFlags: 1
      m_ColliderType: 1
  - first: {x: 2, y: -11, z: 0}
    second:
      m_TileIndex: 149
      m_TileSpriteIndex: 149
      m_TileMatrixIndex: 0
      m_TileColorIndex: 0
      m_ObjectToInstantiate: {fileID: 0}
      m_TileFlags: 1
      m_ColliderType: 1
  - first: {x: 3, y: -11, z: 0}
    second:
      m_TileIndex: 150
      m_TileSpriteIndex: 150
      m_TileMatrixIndex: 0
      m_TileColorIndex: 0
      m_ObjectToInstantiate: {fileID: 0}
      m_TileFlags: 1
      m_ColliderType: 1
  - first: {x: 4, y: -11, z: 0}
    second:
      m_TileIndex: 151
      m_TileSpriteIndex: 151
      m_TileMatrixIndex: 0
      m_TileColorIndex: 0
      m_ObjectToInstantiate: {fileID: 0}
      m_TileFlags: 1
      m_ColliderType: 1
  - first: {x: 5, y: -11, z: 0}
    second:
      m_TileIndex: 152
      m_TileSpriteIndex: 152
      m_TileMatrixIndex: 0
      m_TileColorIndex: 0
      m_ObjectToInstantiate: {fileID: 0}
      m_TileFlags: 1
      m_ColliderType: 1
  - first: {x: 6, y: -11, z: 0}
    second:
      m_TileIndex: 153
      m_TileSpriteIndex: 153
      m_TileMatrixIndex: 0
      m_TileColorIndex: 0
      m_ObjectToInstantiate: {fileID: 0}
      m_TileFlags: 1
      m_ColliderType: 1
  - first: {x: 7, y: -11, z: 0}
    second:
      m_TileIndex: 154
      m_TileSpriteIndex: 154
      m_TileMatrixIndex: 0
      m_TileColorIndex: 0
      m_ObjectToInstantiate: {fileID: 0}
      m_TileFlags: 1
      m_ColliderType: 1
  - first: {x: 8, y: -11, z: 0}
    second:
      m_TileIndex: 155
      m_TileSpriteIndex: 155
      m_TileMatrixIndex: 0
      m_TileColorIndex: 0
      m_ObjectToInstantiate: {fileID: 0}
      m_TileFlags: 1
      m_ColliderType: 1
  - first: {x: -3, y: -10, z: 0}
    second:
      m_TileIndex: 132
      m_TileSpriteIndex: 132
      m_TileMatrixIndex: 0
      m_TileColorIndex: 0
      m_ObjectToInstantiate: {fileID: 0}
      m_TileFlags: 1
      m_ColliderType: 1
  - first: {x: -2, y: -10, z: 0}
    second:
      m_TileIndex: 133
      m_TileSpriteIndex: 133
      m_TileMatrixIndex: 0
      m_TileColorIndex: 0
      m_ObjectToInstantiate: {fileID: 0}
      m_TileFlags: 1
      m_ColliderType: 1
  - first: {x: -1, y: -10, z: 0}
    second:
      m_TileIndex: 134
      m_TileSpriteIndex: 134
      m_TileMatrixIndex: 0
      m_TileColorIndex: 0
      m_ObjectToInstantiate: {fileID: 0}
      m_TileFlags: 1
      m_ColliderType: 1
  - first: {x: 0, y: -10, z: 0}
    second:
      m_TileIndex: 135
      m_TileSpriteIndex: 135
      m_TileMatrixIndex: 0
      m_TileColorIndex: 0
      m_ObjectToInstantiate: {fileID: 0}
      m_TileFlags: 1
      m_ColliderType: 1
  - first: {x: 1, y: -10, z: 0}
    second:
      m_TileIndex: 136
      m_TileSpriteIndex: 136
      m_TileMatrixIndex: 0
      m_TileColorIndex: 0
      m_ObjectToInstantiate: {fileID: 0}
      m_TileFlags: 1
      m_ColliderType: 1
  - first: {x: 2, y: -10, z: 0}
    second:
      m_TileIndex: 137
      m_TileSpriteIndex: 137
      m_TileMatrixIndex: 0
      m_TileColorIndex: 0
      m_ObjectToInstantiate: {fileID: 0}
      m_TileFlags: 1
      m_ColliderType: 1
  - first: {x: 3, y: -10, z: 0}
    second:
      m_TileIndex: 138
      m_TileSpriteIndex: 138
      m_TileMatrixIndex: 0
      m_TileColorIndex: 0
      m_ObjectToInstantiate: {fileID: 0}
      m_TileFlags: 1
      m_ColliderType: 1
  - first: {x: 4, y: -10, z: 0}
    second:
      m_TileIndex: 139
      m_TileSpriteIndex: 139
      m_TileMatrixIndex: 0
      m_TileColorIndex: 0
      m_ObjectToInstantiate: {fileID: 0}
      m_TileFlags: 1
      m_ColliderType: 1
  - first: {x: 5, y: -10, z: 0}
    second:
      m_TileIndex: 140
      m_TileSpriteIndex: 140
      m_TileMatrixIndex: 0
      m_TileColorIndex: 0
      m_ObjectToInstantiate: {fileID: 0}
      m_TileFlags: 1
      m_ColliderType: 1
  - first: {x: 6, y: -10, z: 0}
    second:
      m_TileIndex: 141
      m_TileSpriteIndex: 141
      m_TileMatrixIndex: 0
      m_TileColorIndex: 0
      m_ObjectToInstantiate: {fileID: 0}
      m_TileFlags: 1
      m_ColliderType: 1
  - first: {x: 7, y: -10, z: 0}
    second:
      m_TileIndex: 142
      m_TileSpriteIndex: 142
      m_TileMatrixIndex: 0
      m_TileColorIndex: 0
      m_ObjectToInstantiate: {fileID: 0}
      m_TileFlags: 1
      m_ColliderType: 1
  - first: {x: 8, y: -10, z: 0}
    second:
      m_TileIndex: 143
      m_TileSpriteIndex: 143
      m_TileMatrixIndex: 0
      m_TileColorIndex: 0
      m_ObjectToInstantiate: {fileID: 0}
      m_TileFlags: 1
      m_ColliderType: 1
  - first: {x: -3, y: -9, z: 0}
    second:
      m_TileIndex: 120
      m_TileSpriteIndex: 120
      m_TileMatrixIndex: 0
      m_TileColorIndex: 0
      m_ObjectToInstantiate: {fileID: 0}
      m_TileFlags: 1
      m_ColliderType: 1
  - first: {x: -2, y: -9, z: 0}
    second:
      m_TileIndex: 121
      m_TileSpriteIndex: 121
      m_TileMatrixIndex: 0
      m_TileColorIndex: 0
      m_ObjectToInstantiate: {fileID: 0}
      m_TileFlags: 1
      m_ColliderType: 1
  - first: {x: -1, y: -9, z: 0}
    second:
      m_TileIndex: 122
      m_TileSpriteIndex: 122
      m_TileMatrixIndex: 0
      m_TileColorIndex: 0
      m_ObjectToInstantiate: {fileID: 0}
      m_TileFlags: 1
      m_ColliderType: 1
  - first: {x: 0, y: -9, z: 0}
    second:
      m_TileIndex: 123
      m_TileSpriteIndex: 123
      m_TileMatrixIndex: 0
      m_TileColorIndex: 0
      m_ObjectToInstantiate: {fileID: 0}
      m_TileFlags: 1
      m_ColliderType: 1
  - first: {x: 1, y: -9, z: 0}
    second:
      m_TileIndex: 124
      m_TileSpriteIndex: 124
      m_TileMatrixIndex: 0
      m_TileColorIndex: 0
      m_ObjectToInstantiate: {fileID: 0}
      m_TileFlags: 1
      m_ColliderType: 1
  - first: {x: 2, y: -9, z: 0}
    second:
      m_TileIndex: 125
      m_TileSpriteIndex: 125
      m_TileMatrixIndex: 0
      m_TileColorIndex: 0
      m_ObjectToInstantiate: {fileID: 0}
      m_TileFlags: 1
      m_ColliderType: 1
  - first: {x: 3, y: -9, z: 0}
    second:
      m_TileIndex: 126
      m_TileSpriteIndex: 126
      m_TileMatrixIndex: 0
      m_TileColorIndex: 0
      m_ObjectToInstantiate: {fileID: 0}
      m_TileFlags: 1
      m_ColliderType: 1
  - first: {x: 4, y: -9, z: 0}
    second:
      m_TileIndex: 127
      m_TileSpriteIndex: 127
      m_TileMatrixIndex: 0
      m_TileColorIndex: 0
      m_ObjectToInstantiate: {fileID: 0}
      m_TileFlags: 1
      m_ColliderType: 1
  - first: {x: 5, y: -9, z: 0}
    second:
      m_TileIndex: 128
      m_TileSpriteIndex: 128
      m_TileMatrixIndex: 0
      m_TileColorIndex: 0
      m_ObjectToInstantiate: {fileID: 0}
      m_TileFlags: 1
      m_ColliderType: 1
  - first: {x: 6, y: -9, z: 0}
    second:
      m_TileIndex: 129
      m_TileSpriteIndex: 129
      m_TileMatrixIndex: 0
      m_TileColorIndex: 0
      m_ObjectToInstantiate: {fileID: 0}
      m_TileFlags: 1
      m_ColliderType: 1
  - first: {x: 7, y: -9, z: 0}
    second:
      m_TileIndex: 130
      m_TileSpriteIndex: 130
      m_TileMatrixIndex: 0
      m_TileColorIndex: 0
      m_ObjectToInstantiate: {fileID: 0}
      m_TileFlags: 1
      m_ColliderType: 1
  - first: {x: 8, y: -9, z: 0}
    second:
      m_TileIndex: 131
      m_TileSpriteIndex: 131
      m_TileMatrixIndex: 0
      m_TileColorIndex: 0
      m_ObjectToInstantiate: {fileID: 0}
      m_TileFlags: 1
      m_ColliderType: 1
  - first: {x: -3, y: -8, z: 0}
    second:
      m_TileIndex: 108
      m_TileSpriteIndex: 108
      m_TileMatrixIndex: 0
      m_TileColorIndex: 0
      m_ObjectToInstantiate: {fileID: 0}
      m_TileFlags: 1
      m_ColliderType: 1
  - first: {x: -2, y: -8, z: 0}
    second:
      m_TileIndex: 109
      m_TileSpriteIndex: 109
      m_TileMatrixIndex: 0
      m_TileColorIndex: 0
      m_ObjectToInstantiate: {fileID: 0}
      m_TileFlags: 1
      m_ColliderType: 1
  - first: {x: -1, y: -8, z: 0}
    second:
      m_TileIndex: 110
      m_TileSpriteIndex: 110
      m_TileMatrixIndex: 0
      m_TileColorIndex: 0
      m_ObjectToInstantiate: {fileID: 0}
      m_TileFlags: 1
      m_ColliderType: 1
  - first: {x: 0, y: -8, z: 0}
    second:
      m_TileIndex: 111
      m_TileSpriteIndex: 111
      m_TileMatrixIndex: 0
      m_TileColorIndex: 0
      m_ObjectToInstantiate: {fileID: 0}
      m_TileFlags: 1
      m_ColliderType: 1
  - first: {x: 1, y: -8, z: 0}
    second:
      m_TileIndex: 112
      m_TileSpriteIndex: 112
      m_TileMatrixIndex: 0
      m_TileColorIndex: 0
      m_ObjectToInstantiate: {fileID: 0}
      m_TileFlags: 1
      m_ColliderType: 1
  - first: {x: 2, y: -8, z: 0}
    second:
      m_TileIndex: 113
      m_TileSpriteIndex: 113
      m_TileMatrixIndex: 0
      m_TileColorIndex: 0
      m_ObjectToInstantiate: {fileID: 0}
      m_TileFlags: 1
      m_ColliderType: 1
  - first: {x: 3, y: -8, z: 0}
    second:
      m_TileIndex: 114
      m_TileSpriteIndex: 114
      m_TileMatrixIndex: 0
      m_TileColorIndex: 0
      m_ObjectToInstantiate: {fileID: 0}
      m_TileFlags: 1
      m_ColliderType: 1
  - first: {x: 4, y: -8, z: 0}
    second:
      m_TileIndex: 115
      m_TileSpriteIndex: 115
      m_TileMatrixIndex: 0
      m_TileColorIndex: 0
      m_ObjectToInstantiate: {fileID: 0}
      m_TileFlags: 1
      m_ColliderType: 1
  - first: {x: 5, y: -8, z: 0}
    second:
      m_TileIndex: 116
      m_TileSpriteIndex: 116
      m_TileMatrixIndex: 0
      m_TileColorIndex: 0
      m_ObjectToInstantiate: {fileID: 0}
      m_TileFlags: 1
      m_ColliderType: 1
  - first: {x: 6, y: -8, z: 0}
    second:
      m_TileIndex: 117
      m_TileSpriteIndex: 117
      m_TileMatrixIndex: 0
      m_TileColorIndex: 0
      m_ObjectToInstantiate: {fileID: 0}
      m_TileFlags: 1
      m_ColliderType: 1
  - first: {x: 7, y: -8, z: 0}
    second:
      m_TileIndex: 118
      m_TileSpriteIndex: 118
      m_TileMatrixIndex: 0
      m_TileColorIndex: 0
      m_ObjectToInstantiate: {fileID: 0}
      m_TileFlags: 1
      m_ColliderType: 1
  - first: {x: 8, y: -8, z: 0}
    second:
      m_TileIndex: 119
      m_TileSpriteIndex: 119
      m_TileMatrixIndex: 0
      m_TileColorIndex: 0
      m_ObjectToInstantiate: {fileID: 0}
      m_TileFlags: 1
      m_ColliderType: 1
  - first: {x: -3, y: -7, z: 0}
    second:
      m_TileIndex: 96
      m_TileSpriteIndex: 96
      m_TileMatrixIndex: 0
      m_TileColorIndex: 0
      m_ObjectToInstantiate: {fileID: 0}
      m_TileFlags: 1
      m_ColliderType: 1
  - first: {x: -2, y: -7, z: 0}
    second:
      m_TileIndex: 97
      m_TileSpriteIndex: 97
      m_TileMatrixIndex: 0
      m_TileColorIndex: 0
      m_ObjectToInstantiate: {fileID: 0}
      m_TileFlags: 1
      m_ColliderType: 1
  - first: {x: -1, y: -7, z: 0}
    second:
      m_TileIndex: 98
      m_TileSpriteIndex: 98
      m_TileMatrixIndex: 0
      m_TileColorIndex: 0
      m_ObjectToInstantiate: {fileID: 0}
      m_TileFlags: 1
      m_ColliderType: 1
  - first: {x: 0, y: -7, z: 0}
    second:
      m_TileIndex: 99
      m_TileSpriteIndex: 99
      m_TileMatrixIndex: 0
      m_TileColorIndex: 0
      m_ObjectToInstantiate: {fileID: 0}
      m_TileFlags: 1
      m_ColliderType: 1
  - first: {x: 1, y: -7, z: 0}
    second:
      m_TileIndex: 100
      m_TileSpriteIndex: 100
      m_TileMatrixIndex: 0
      m_TileColorIndex: 0
      m_ObjectToInstantiate: {fileID: 0}
      m_TileFlags: 1
      m_ColliderType: 1
  - first: {x: 2, y: -7, z: 0}
    second:
      m_TileIndex: 101
      m_TileSpriteIndex: 101
      m_TileMatrixIndex: 0
      m_TileColorIndex: 0
      m_ObjectToInstantiate: {fileID: 0}
      m_TileFlags: 1
      m_ColliderType: 1
  - first: {x: 3, y: -7, z: 0}
    second:
      m_TileIndex: 102
      m_TileSpriteIndex: 102
      m_TileMatrixIndex: 0
      m_TileColorIndex: 0
      m_ObjectToInstantiate: {fileID: 0}
      m_TileFlags: 1
      m_ColliderType: 1
  - first: {x: 4, y: -7, z: 0}
    second:
      m_TileIndex: 103
      m_TileSpriteIndex: 103
      m_TileMatrixIndex: 0
      m_TileColorIndex: 0
      m_ObjectToInstantiate: {fileID: 0}
      m_TileFlags: 1
      m_ColliderType: 1
  - first: {x: 5, y: -7, z: 0}
    second:
      m_TileIndex: 104
      m_TileSpriteIndex: 104
      m_TileMatrixIndex: 0
      m_TileColorIndex: 0
      m_ObjectToInstantiate: {fileID: 0}
      m_TileFlags: 1
      m_ColliderType: 1
  - first: {x: 6, y: -7, z: 0}
    second:
      m_TileIndex: 105
      m_TileSpriteIndex: 105
      m_TileMatrixIndex: 0
      m_TileColorIndex: 0
      m_ObjectToInstantiate: {fileID: 0}
      m_TileFlags: 1
      m_ColliderType: 1
  - first: {x: 7, y: -7, z: 0}
    second:
      m_TileIndex: 106
      m_TileSpriteIndex: 106
      m_TileMatrixIndex: 0
      m_TileColorIndex: 0
      m_ObjectToInstantiate: {fileID: 0}
      m_TileFlags: 1
      m_ColliderType: 1
  - first: {x: 8, y: -7, z: 0}
    second:
      m_TileIndex: 107
      m_TileSpriteIndex: 107
      m_TileMatrixIndex: 0
      m_TileColorIndex: 0
      m_ObjectToInstantiate: {fileID: 0}
      m_TileFlags: 1
      m_ColliderType: 1
  - first: {x: -3, y: -6, z: 0}
    second:
      m_TileIndex: 84
      m_TileSpriteIndex: 84
      m_TileMatrixIndex: 0
      m_TileColorIndex: 0
      m_ObjectToInstantiate: {fileID: 0}
      m_TileFlags: 1
      m_ColliderType: 1
  - first: {x: -2, y: -6, z: 0}
    second:
      m_TileIndex: 85
      m_TileSpriteIndex: 85
      m_TileMatrixIndex: 0
      m_TileColorIndex: 0
      m_ObjectToInstantiate: {fileID: 0}
      m_TileFlags: 1
      m_ColliderType: 1
  - first: {x: -1, y: -6, z: 0}
    second:
      m_TileIndex: 86
      m_TileSpriteIndex: 86
      m_TileMatrixIndex: 0
      m_TileColorIndex: 0
      m_ObjectToInstantiate: {fileID: 0}
      m_TileFlags: 1
      m_ColliderType: 1
  - first: {x: 0, y: -6, z: 0}
    second:
      m_TileIndex: 87
      m_TileSpriteIndex: 87
      m_TileMatrixIndex: 0
      m_TileColorIndex: 0
      m_ObjectToInstantiate: {fileID: 0}
      m_TileFlags: 1
      m_ColliderType: 1
  - first: {x: 1, y: -6, z: 0}
    second:
      m_TileIndex: 88
      m_TileSpriteIndex: 88
      m_TileMatrixIndex: 0
      m_TileColorIndex: 0
      m_ObjectToInstantiate: {fileID: 0}
      m_TileFlags: 1
      m_ColliderType: 1
  - first: {x: 2, y: -6, z: 0}
    second:
      m_TileIndex: 89
      m_TileSpriteIndex: 89
      m_TileMatrixIndex: 0
      m_TileColorIndex: 0
      m_ObjectToInstantiate: {fileID: 0}
      m_TileFlags: 1
      m_ColliderType: 1
  - first: {x: 3, y: -6, z: 0}
    second:
      m_TileIndex: 90
      m_TileSpriteIndex: 90
      m_TileMatrixIndex: 0
      m_TileColorIndex: 0
      m_ObjectToInstantiate: {fileID: 0}
      m_TileFlags: 1
      m_ColliderType: 1
  - first: {x: 4, y: -6, z: 0}
    second:
      m_TileIndex: 91
      m_TileSpriteIndex: 91
      m_TileMatrixIndex: 0
      m_TileColorIndex: 0
      m_ObjectToInstantiate: {fileID: 0}
      m_TileFlags: 1
      m_ColliderType: 1
  - first: {x: 5, y: -6, z: 0}
    second:
      m_TileIndex: 92
      m_TileSpriteIndex: 92
      m_TileMatrixIndex: 0
      m_TileColorIndex: 0
      m_ObjectToInstantiate: {fileID: 0}
      m_TileFlags: 1
      m_ColliderType: 1
  - first: {x: 6, y: -6, z: 0}
    second:
      m_TileIndex: 93
      m_TileSpriteIndex: 93
      m_TileMatrixIndex: 0
      m_TileColorIndex: 0
      m_ObjectToInstantiate: {fileID: 0}
      m_TileFlags: 1
      m_ColliderType: 1
  - first: {x: 7, y: -6, z: 0}
    second:
      m_TileIndex: 94
      m_TileSpriteIndex: 94
      m_TileMatrixIndex: 0
      m_TileColorIndex: 0
      m_ObjectToInstantiate: {fileID: 0}
      m_TileFlags: 1
      m_ColliderType: 1
  - first: {x: 8, y: -6, z: 0}
    second:
      m_TileIndex: 95
      m_TileSpriteIndex: 95
      m_TileMatrixIndex: 0
      m_TileColorIndex: 0
      m_ObjectToInstantiate: {fileID: 0}
      m_TileFlags: 1
      m_ColliderType: 1
  - first: {x: -3, y: -5, z: 0}
    second:
      m_TileIndex: 72
      m_TileSpriteIndex: 72
      m_TileMatrixIndex: 0
      m_TileColorIndex: 0
      m_ObjectToInstantiate: {fileID: 0}
      m_TileFlags: 1
      m_ColliderType: 1
  - first: {x: -2, y: -5, z: 0}
    second:
      m_TileIndex: 73
      m_TileSpriteIndex: 73
      m_TileMatrixIndex: 0
      m_TileColorIndex: 0
      m_ObjectToInstantiate: {fileID: 0}
      m_TileFlags: 1
      m_ColliderType: 1
  - first: {x: -1, y: -5, z: 0}
    second:
      m_TileIndex: 74
      m_TileSpriteIndex: 74
      m_TileMatrixIndex: 0
      m_TileColorIndex: 0
      m_ObjectToInstantiate: {fileID: 0}
      m_TileFlags: 1
      m_ColliderType: 1
  - first: {x: 0, y: -5, z: 0}
    second:
      m_TileIndex: 75
      m_TileSpriteIndex: 75
      m_TileMatrixIndex: 0
      m_TileColorIndex: 0
      m_ObjectToInstantiate: {fileID: 0}
      m_TileFlags: 1
      m_ColliderType: 1
  - first: {x: 1, y: -5, z: 0}
    second:
      m_TileIndex: 76
      m_TileSpriteIndex: 76
      m_TileMatrixIndex: 0
      m_TileColorIndex: 0
      m_ObjectToInstantiate: {fileID: 0}
      m_TileFlags: 1
      m_ColliderType: 1
  - first: {x: 2, y: -5, z: 0}
    second:
      m_TileIndex: 77
      m_TileSpriteIndex: 77
      m_TileMatrixIndex: 0
      m_TileColorIndex: 0
      m_ObjectToInstantiate: {fileID: 0}
      m_TileFlags: 1
      m_ColliderType: 1
  - first: {x: 3, y: -5, z: 0}
    second:
      m_TileIndex: 78
      m_TileSpriteIndex: 78
      m_TileMatrixIndex: 0
      m_TileColorIndex: 0
      m_ObjectToInstantiate: {fileID: 0}
      m_TileFlags: 1
      m_ColliderType: 1
  - first: {x: 4, y: -5, z: 0}
    second:
      m_TileIndex: 79
      m_TileSpriteIndex: 79
      m_TileMatrixIndex: 0
      m_TileColorIndex: 0
      m_ObjectToInstantiate: {fileID: 0}
      m_TileFlags: 1
      m_ColliderType: 1
  - first: {x: 5, y: -5, z: 0}
    second:
      m_TileIndex: 80
      m_TileSpriteIndex: 80
      m_TileMatrixIndex: 0
      m_TileColorIndex: 0
      m_ObjectToInstantiate: {fileID: 0}
      m_TileFlags: 1
      m_ColliderType: 1
  - first: {x: 6, y: -5, z: 0}
    second:
      m_TileIndex: 81
      m_TileSpriteIndex: 81
      m_TileMatrixIndex: 0
      m_TileColorIndex: 0
      m_ObjectToInstantiate: {fileID: 0}
      m_TileFlags: 1
      m_ColliderType: 1
  - first: {x: 7, y: -5, z: 0}
    second:
      m_TileIndex: 82
      m_TileSpriteIndex: 82
      m_TileMatrixIndex: 0
      m_TileColorIndex: 0
      m_ObjectToInstantiate: {fileID: 0}
      m_TileFlags: 1
      m_ColliderType: 1
  - first: {x: 8, y: -5, z: 0}
    second:
      m_TileIndex: 83
      m_TileSpriteIndex: 83
      m_TileMatrixIndex: 0
      m_TileColorIndex: 0
      m_ObjectToInstantiate: {fileID: 0}
      m_TileFlags: 1
      m_ColliderType: 1
  - first: {x: -3, y: -4, z: 0}
    second:
      m_TileIndex: 60
      m_TileSpriteIndex: 60
      m_TileMatrixIndex: 0
      m_TileColorIndex: 0
      m_ObjectToInstantiate: {fileID: 0}
      m_TileFlags: 1
      m_ColliderType: 1
  - first: {x: -2, y: -4, z: 0}
    second:
      m_TileIndex: 61
      m_TileSpriteIndex: 61
      m_TileMatrixIndex: 0
      m_TileColorIndex: 0
      m_ObjectToInstantiate: {fileID: 0}
      m_TileFlags: 1
      m_ColliderType: 1
  - first: {x: -1, y: -4, z: 0}
    second:
      m_TileIndex: 62
      m_TileSpriteIndex: 62
      m_TileMatrixIndex: 0
      m_TileColorIndex: 0
      m_ObjectToInstantiate: {fileID: 0}
      m_TileFlags: 1
      m_ColliderType: 1
  - first: {x: 0, y: -4, z: 0}
    second:
      m_TileIndex: 63
      m_TileSpriteIndex: 63
      m_TileMatrixIndex: 0
      m_TileColorIndex: 0
      m_ObjectToInstantiate: {fileID: 0}
      m_TileFlags: 1
      m_ColliderType: 1
  - first: {x: 1, y: -4, z: 0}
    second:
      m_TileIndex: 64
      m_TileSpriteIndex: 64
      m_TileMatrixIndex: 0
      m_TileColorIndex: 0
      m_ObjectToInstantiate: {fileID: 0}
      m_TileFlags: 1
      m_ColliderType: 1
  - first: {x: 2, y: -4, z: 0}
    second:
      m_TileIndex: 65
      m_TileSpriteIndex: 65
      m_TileMatrixIndex: 0
      m_TileColorIndex: 0
      m_ObjectToInstantiate: {fileID: 0}
      m_TileFlags: 1
      m_ColliderType: 1
  - first: {x: 3, y: -4, z: 0}
    second:
      m_TileIndex: 66
      m_TileSpriteIndex: 66
      m_TileMatrixIndex: 0
      m_TileColorIndex: 0
      m_ObjectToInstantiate: {fileID: 0}
      m_TileFlags: 1
      m_ColliderType: 1
  - first: {x: 4, y: -4, z: 0}
    second:
      m_TileIndex: 67
      m_TileSpriteIndex: 67
      m_TileMatrixIndex: 0
      m_TileColorIndex: 0
      m_ObjectToInstantiate: {fileID: 0}
      m_TileFlags: 1
      m_ColliderType: 1
  - first: {x: 5, y: -4, z: 0}
    second:
      m_TileIndex: 68
      m_TileSpriteIndex: 68
      m_TileMatrixIndex: 0
      m_TileColorIndex: 0
      m_ObjectToInstantiate: {fileID: 0}
      m_TileFlags: 1
      m_ColliderType: 1
  - first: {x: 6, y: -4, z: 0}
    second:
      m_TileIndex: 69
      m_TileSpriteIndex: 69
      m_TileMatrixIndex: 0
      m_TileColorIndex: 0
      m_ObjectToInstantiate: {fileID: 0}
      m_TileFlags: 1
      m_ColliderType: 1
  - first: {x: 7, y: -4, z: 0}
    second:
      m_TileIndex: 70
      m_TileSpriteIndex: 70
      m_TileMatrixIndex: 0
      m_TileColorIndex: 0
      m_ObjectToInstantiate: {fileID: 0}
      m_TileFlags: 1
      m_ColliderType: 1
  - first: {x: 8, y: -4, z: 0}
    second:
      m_TileIndex: 71
      m_TileSpriteIndex: 71
      m_TileMatrixIndex: 0
      m_TileColorIndex: 0
      m_ObjectToInstantiate: {fileID: 0}
      m_TileFlags: 1
      m_ColliderType: 1
  - first: {x: -3, y: -3, z: 0}
    second:
      m_TileIndex: 48
      m_TileSpriteIndex: 48
      m_TileMatrixIndex: 0
      m_TileColorIndex: 0
      m_ObjectToInstantiate: {fileID: 0}
      m_TileFlags: 1
      m_ColliderType: 1
  - first: {x: -2, y: -3, z: 0}
    second:
      m_TileIndex: 49
      m_TileSpriteIndex: 49
      m_TileMatrixIndex: 0
      m_TileColorIndex: 0
      m_ObjectToInstantiate: {fileID: 0}
      m_TileFlags: 1
      m_ColliderType: 1
  - first: {x: -1, y: -3, z: 0}
    second:
      m_TileIndex: 50
      m_TileSpriteIndex: 50
      m_TileMatrixIndex: 0
      m_TileColorIndex: 0
      m_ObjectToInstantiate: {fileID: 0}
      m_TileFlags: 1
      m_ColliderType: 1
  - first: {x: 0, y: -3, z: 0}
    second:
      m_TileIndex: 51
      m_TileSpriteIndex: 51
      m_TileMatrixIndex: 0
      m_TileColorIndex: 0
      m_ObjectToInstantiate: {fileID: 0}
      m_TileFlags: 1
      m_ColliderType: 1
  - first: {x: 1, y: -3, z: 0}
    second:
      m_TileIndex: 52
      m_TileSpriteIndex: 52
      m_TileMatrixIndex: 0
      m_TileColorIndex: 0
      m_ObjectToInstantiate: {fileID: 0}
      m_TileFlags: 1
      m_ColliderType: 1
  - first: {x: 2, y: -3, z: 0}
    second:
      m_TileIndex: 53
      m_TileSpriteIndex: 53
      m_TileMatrixIndex: 0
      m_TileColorIndex: 0
      m_ObjectToInstantiate: {fileID: 0}
      m_TileFlags: 1
      m_ColliderType: 1
  - first: {x: 3, y: -3, z: 0}
    second:
      m_TileIndex: 54
      m_TileSpriteIndex: 54
      m_TileMatrixIndex: 0
      m_TileColorIndex: 0
      m_ObjectToInstantiate: {fileID: 0}
      m_TileFlags: 1
      m_ColliderType: 1
  - first: {x: 4, y: -3, z: 0}
    second:
      m_TileIndex: 55
      m_TileSpriteIndex: 55
      m_TileMatrixIndex: 0
      m_TileColorIndex: 0
      m_ObjectToInstantiate: {fileID: 0}
      m_TileFlags: 1
      m_ColliderType: 1
  - first: {x: 5, y: -3, z: 0}
    second:
      m_TileIndex: 56
      m_TileSpriteIndex: 56
      m_TileMatrixIndex: 0
      m_TileColorIndex: 0
      m_ObjectToInstantiate: {fileID: 0}
      m_TileFlags: 1
      m_ColliderType: 1
  - first: {x: 6, y: -3, z: 0}
    second:
      m_TileIndex: 57
      m_TileSpriteIndex: 57
      m_TileMatrixIndex: 0
      m_TileColorIndex: 0
      m_ObjectToInstantiate: {fileID: 0}
      m_TileFlags: 1
      m_ColliderType: 1
  - first: {x: 7, y: -3, z: 0}
    second:
      m_TileIndex: 58
      m_TileSpriteIndex: 58
      m_TileMatrixIndex: 0
      m_TileColorIndex: 0
      m_ObjectToInstantiate: {fileID: 0}
      m_TileFlags: 1
      m_ColliderType: 1
  - first: {x: 8, y: -3, z: 0}
    second:
      m_TileIndex: 59
      m_TileSpriteIndex: 59
      m_TileMatrixIndex: 0
      m_TileColorIndex: 0
      m_ObjectToInstantiate: {fileID: 0}
      m_TileFlags: 1
      m_ColliderType: 1
  - first: {x: -3, y: -2, z: 0}
    second:
      m_TileIndex: 36
      m_TileSpriteIndex: 36
      m_TileMatrixIndex: 0
      m_TileColorIndex: 0
      m_ObjectToInstantiate: {fileID: 0}
      m_TileFlags: 1
      m_ColliderType: 1
  - first: {x: -2, y: -2, z: 0}
    second:
      m_TileIndex: 37
      m_TileSpriteIndex: 37
      m_TileMatrixIndex: 0
      m_TileColorIndex: 0
      m_ObjectToInstantiate: {fileID: 0}
      m_TileFlags: 1
      m_ColliderType: 1
  - first: {x: -1, y: -2, z: 0}
    second:
      m_TileIndex: 38
      m_TileSpriteIndex: 38
      m_TileMatrixIndex: 0
      m_TileColorIndex: 0
      m_ObjectToInstantiate: {fileID: 0}
      m_TileFlags: 1
      m_ColliderType: 1
  - first: {x: 0, y: -2, z: 0}
    second:
      m_TileIndex: 39
      m_TileSpriteIndex: 39
      m_TileMatrixIndex: 0
      m_TileColorIndex: 0
      m_ObjectToInstantiate: {fileID: 0}
      m_TileFlags: 1
      m_ColliderType: 1
  - first: {x: 1, y: -2, z: 0}
    second:
      m_TileIndex: 40
      m_TileSpriteIndex: 40
      m_TileMatrixIndex: 0
      m_TileColorIndex: 0
      m_ObjectToInstantiate: {fileID: 0}
      m_TileFlags: 1
      m_ColliderType: 1
  - first: {x: 2, y: -2, z: 0}
    second:
      m_TileIndex: 41
      m_TileSpriteIndex: 41
      m_TileMatrixIndex: 0
      m_TileColorIndex: 0
      m_ObjectToInstantiate: {fileID: 0}
      m_TileFlags: 1
      m_ColliderType: 1
  - first: {x: 3, y: -2, z: 0}
    second:
      m_TileIndex: 42
      m_TileSpriteIndex: 42
      m_TileMatrixIndex: 0
      m_TileColorIndex: 0
      m_ObjectToInstantiate: {fileID: 0}
      m_TileFlags: 1
      m_ColliderType: 1
  - first: {x: 4, y: -2, z: 0}
    second:
      m_TileIndex: 43
      m_TileSpriteIndex: 43
      m_TileMatrixIndex: 0
      m_TileColorIndex: 0
      m_ObjectToInstantiate: {fileID: 0}
      m_TileFlags: 1
      m_ColliderType: 1
  - first: {x: 5, y: -2, z: 0}
    second:
      m_TileIndex: 44
      m_TileSpriteIndex: 44
      m_TileMatrixIndex: 0
      m_TileColorIndex: 0
      m_ObjectToInstantiate: {fileID: 0}
      m_TileFlags: 1
      m_ColliderType: 1
  - first: {x: 6, y: -2, z: 0}
    second:
      m_TileIndex: 45
      m_TileSpriteIndex: 45
      m_TileMatrixIndex: 0
      m_TileColorIndex: 0
      m_ObjectToInstantiate: {fileID: 0}
      m_TileFlags: 1
      m_ColliderType: 1
  - first: {x: 7, y: -2, z: 0}
    second:
      m_TileIndex: 46
      m_TileSpriteIndex: 46
      m_TileMatrixIndex: 0
      m_TileColorIndex: 0
      m_ObjectToInstantiate: {fileID: 0}
      m_TileFlags: 1
      m_ColliderType: 1
  - first: {x: 8, y: -2, z: 0}
    second:
      m_TileIndex: 47
      m_TileSpriteIndex: 47
      m_TileMatrixIndex: 0
      m_TileColorIndex: 0
      m_ObjectToInstantiate: {fileID: 0}
      m_TileFlags: 1
      m_ColliderType: 1
  - first: {x: -3, y: -1, z: 0}
    second:
      m_TileIndex: 24
      m_TileSpriteIndex: 24
      m_TileMatrixIndex: 0
      m_TileColorIndex: 0
      m_ObjectToInstantiate: {fileID: 0}
      m_TileFlags: 1
      m_ColliderType: 1
  - first: {x: -2, y: -1, z: 0}
    second:
      m_TileIndex: 25
      m_TileSpriteIndex: 25
      m_TileMatrixIndex: 0
      m_TileColorIndex: 0
      m_ObjectToInstantiate: {fileID: 0}
      m_TileFlags: 1
      m_ColliderType: 1
  - first: {x: -1, y: -1, z: 0}
    second:
      m_TileIndex: 26
      m_TileSpriteIndex: 26
      m_TileMatrixIndex: 0
      m_TileColorIndex: 0
      m_ObjectToInstantiate: {fileID: 0}
      m_TileFlags: 1
      m_ColliderType: 1
  - first: {x: 0, y: -1, z: 0}
    second:
      m_TileIndex: 27
      m_TileSpriteIndex: 27
      m_TileMatrixIndex: 0
      m_TileColorIndex: 0
      m_ObjectToInstantiate: {fileID: 0}
      m_TileFlags: 1
      m_ColliderType: 1
  - first: {x: 1, y: -1, z: 0}
    second:
      m_TileIndex: 28
      m_TileSpriteIndex: 28
      m_TileMatrixIndex: 0
      m_TileColorIndex: 0
      m_ObjectToInstantiate: {fileID: 0}
      m_TileFlags: 1
      m_ColliderType: 1
  - first: {x: 2, y: -1, z: 0}
    second:
      m_TileIndex: 29
      m_TileSpriteIndex: 29
      m_TileMatrixIndex: 0
      m_TileColorIndex: 0
      m_ObjectToInstantiate: {fileID: 0}
      m_TileFlags: 1
      m_ColliderType: 1
  - first: {x: 3, y: -1, z: 0}
    second:
      m_TileIndex: 30
      m_TileSpriteIndex: 30
      m_TileMatrixIndex: 0
      m_TileColorIndex: 0
      m_ObjectToInstantiate: {fileID: 0}
      m_TileFlags: 1
      m_ColliderType: 1
  - first: {x: 4, y: -1, z: 0}
    second:
      m_TileIndex: 31
      m_TileSpriteIndex: 31
      m_TileMatrixIndex: 0
      m_TileColorIndex: 0
      m_ObjectToInstantiate: {fileID: 0}
      m_TileFlags: 1
      m_ColliderType: 1
  - first: {x: 5, y: -1, z: 0}
    second:
      m_TileIndex: 32
      m_TileSpriteIndex: 32
      m_TileMatrixIndex: 0
      m_TileColorIndex: 0
      m_ObjectToInstantiate: {fileID: 0}
      m_TileFlags: 1
      m_ColliderType: 1
  - first: {x: 6, y: -1, z: 0}
    second:
      m_TileIndex: 33
      m_TileSpriteIndex: 33
      m_TileMatrixIndex: 0
      m_TileColorIndex: 0
      m_ObjectToInstantiate: {fileID: 0}
      m_TileFlags: 1
      m_ColliderType: 1
  - first: {x: 7, y: -1, z: 0}
    second:
      m_TileIndex: 34
      m_TileSpriteIndex: 34
      m_TileMatrixIndex: 0
      m_TileColorIndex: 0
      m_ObjectToInstantiate: {fileID: 0}
      m_TileFlags: 1
      m_ColliderType: 1
  - first: {x: 8, y: -1, z: 0}
    second:
      m_TileIndex: 35
      m_TileSpriteIndex: 35
      m_TileMatrixIndex: 0
      m_TileColorIndex: 0
      m_ObjectToInstantiate: {fileID: 0}
      m_TileFlags: 1
      m_ColliderType: 1
  - first: {x: -3, y: 0, z: 0}
    second:
      m_TileIndex: 12
      m_TileSpriteIndex: 12
      m_TileMatrixIndex: 0
      m_TileColorIndex: 0
      m_ObjectToInstantiate: {fileID: 0}
      m_TileFlags: 1
      m_ColliderType: 1
  - first: {x: -2, y: 0, z: 0}
    second:
      m_TileIndex: 13
      m_TileSpriteIndex: 13
      m_TileMatrixIndex: 0
      m_TileColorIndex: 0
      m_ObjectToInstantiate: {fileID: 0}
      m_TileFlags: 1
      m_ColliderType: 1
  - first: {x: -1, y: 0, z: 0}
    second:
      m_TileIndex: 14
      m_TileSpriteIndex: 14
      m_TileMatrixIndex: 0
      m_TileColorIndex: 0
      m_ObjectToInstantiate: {fileID: 0}
      m_TileFlags: 1
      m_ColliderType: 1
  - first: {x: 0, y: 0, z: 0}
    second:
      m_TileIndex: 15
      m_TileSpriteIndex: 15
      m_TileMatrixIndex: 0
      m_TileColorIndex: 0
      m_ObjectToInstantiate: {fileID: 0}
      m_TileFlags: 1
      m_ColliderType: 1
  - first: {x: 1, y: 0, z: 0}
    second:
      m_TileIndex: 16
      m_TileSpriteIndex: 16
      m_TileMatrixIndex: 0
      m_TileColorIndex: 0
      m_ObjectToInstantiate: {fileID: 0}
      m_TileFlags: 1
      m_ColliderType: 1
  - first: {x: 2, y: 0, z: 0}
    second:
      m_TileIndex: 17
      m_TileSpriteIndex: 17
      m_TileMatrixIndex: 0
      m_TileColorIndex: 0
      m_ObjectToInstantiate: {fileID: 0}
      m_TileFlags: 1
      m_ColliderType: 1
  - first: {x: 3, y: 0, z: 0}
    second:
      m_TileIndex: 18
      m_TileSpriteIndex: 18
      m_TileMatrixIndex: 0
      m_TileColorIndex: 0
      m_ObjectToInstantiate: {fileID: 0}
      m_TileFlags: 1
      m_ColliderType: 1
  - first: {x: 4, y: 0, z: 0}
    second:
      m_TileIndex: 19
      m_TileSpriteIndex: 19
      m_TileMatrixIndex: 0
      m_TileColorIndex: 0
      m_ObjectToInstantiate: {fileID: 0}
      m_TileFlags: 1
      m_ColliderType: 1
  - first: {x: 5, y: 0, z: 0}
    second:
      m_TileIndex: 20
      m_TileSpriteIndex: 20
      m_TileMatrixIndex: 0
      m_TileColorIndex: 0
      m_ObjectToInstantiate: {fileID: 0}
      m_TileFlags: 1
      m_ColliderType: 1
  - first: {x: 6, y: 0, z: 0}
    second:
      m_TileIndex: 21
      m_TileSpriteIndex: 21
      m_TileMatrixIndex: 0
      m_TileColorIndex: 0
      m_ObjectToInstantiate: {fileID: 0}
      m_TileFlags: 1
      m_ColliderType: 1
  - first: {x: 7, y: 0, z: 0}
    second:
      m_TileIndex: 22
      m_TileSpriteIndex: 22
      m_TileMatrixIndex: 0
      m_TileColorIndex: 0
      m_ObjectToInstantiate: {fileID: 0}
      m_TileFlags: 1
      m_ColliderType: 1
  - first: {x: 8, y: 0, z: 0}
    second:
      m_TileIndex: 23
      m_TileSpriteIndex: 23
      m_TileMatrixIndex: 0
      m_TileColorIndex: 0
      m_ObjectToInstantiate: {fileID: 0}
      m_TileFlags: 1
      m_ColliderType: 1
  - first: {x: -3, y: 1, z: 0}
    second:
      m_TileIndex: 0
      m_TileSpriteIndex: 0
      m_TileMatrixIndex: 0
      m_TileColorIndex: 0
      m_ObjectToInstantiate: {fileID: 0}
      m_TileFlags: 1
      m_ColliderType: 1
  - first: {x: -2, y: 1, z: 0}
    second:
      m_TileIndex: 1
      m_TileSpriteIndex: 1
      m_TileMatrixIndex: 0
      m_TileColorIndex: 0
      m_ObjectToInstantiate: {fileID: 0}
      m_TileFlags: 1
      m_ColliderType: 1
  - first: {x: -1, y: 1, z: 0}
    second:
      m_TileIndex: 2
      m_TileSpriteIndex: 2
      m_TileMatrixIndex: 0
      m_TileColorIndex: 0
      m_ObjectToInstantiate: {fileID: 0}
      m_TileFlags: 1
      m_ColliderType: 1
  - first: {x: 0, y: 1, z: 0}
    second:
      m_TileIndex: 3
      m_TileSpriteIndex: 3
      m_TileMatrixIndex: 0
      m_TileColorIndex: 0
      m_ObjectToInstantiate: {fileID: 0}
      m_TileFlags: 1
      m_ColliderType: 1
  - first: {x: 1, y: 1, z: 0}
    second:
      m_TileIndex: 4
      m_TileSpriteIndex: 4
      m_TileMatrixIndex: 0
      m_TileColorIndex: 0
      m_ObjectToInstantiate: {fileID: 0}
      m_TileFlags: 1
      m_ColliderType: 1
  - first: {x: 2, y: 1, z: 0}
    second:
      m_TileIndex: 5
      m_TileSpriteIndex: 5
      m_TileMatrixIndex: 0
      m_TileColorIndex: 0
      m_ObjectToInstantiate: {fileID: 0}
      m_TileFlags: 1
      m_ColliderType: 1
  - first: {x: 3, y: 1, z: 0}
    second:
      m_TileIndex: 6
      m_TileSpriteIndex: 6
      m_TileMatrixIndex: 0
      m_TileColorIndex: 0
      m_ObjectToInstantiate: {fileID: 0}
      m_TileFlags: 1
      m_ColliderType: 1
  - first: {x: 4, y: 1, z: 0}
    second:
      m_TileIndex: 7
      m_TileSpriteIndex: 7
      m_TileMatrixIndex: 0
      m_TileColorIndex: 0
      m_ObjectToInstantiate: {fileID: 0}
      m_TileFlags: 1
      m_ColliderType: 1
  - first: {x: 5, y: 1, z: 0}
    second:
      m_TileIndex: 8
      m_TileSpriteIndex: 8
      m_TileMatrixIndex: 0
      m_TileColorIndex: 0
      m_ObjectToInstantiate: {fileID: 0}
      m_TileFlags: 1
      m_ColliderType: 1
  - first: {x: 6, y: 1, z: 0}
    second:
      m_TileIndex: 9
      m_TileSpriteIndex: 9
      m_TileMatrixIndex: 0
      m_TileColorIndex: 0
      m_ObjectToInstantiate: {fileID: 0}
      m_TileFlags: 1
      m_ColliderType: 1
  - first: {x: 7, y: 1, z: 0}
    second:
      m_TileIndex: 10
      m_TileSpriteIndex: 10
      m_TileMatrixIndex: 0
      m_TileColorIndex: 0
      m_ObjectToInstantiate: {fileID: 0}
      m_TileFlags: 1
      m_ColliderType: 1
  - first: {x: 8, y: 1, z: 0}
    second:
      m_TileIndex: 11
      m_TileSpriteIndex: 11
      m_TileMatrixIndex: 0
      m_TileColorIndex: 0
      m_ObjectToInstantiate: {fileID: 0}
      m_TileFlags: 1
      m_ColliderType: 1
  m_AnimatedTiles: {}
  m_TileAssetArray:
  - m_RefCount: 1
    m_Data: {fileID: 11400000, guid: 110970fa0ebb1af42be6b7f2cddc5d5f, type: 2}
  - m_RefCount: 1
    m_Data: {fileID: 11400000, guid: 4028052e9e0425244815119bb7dc0b67, type: 2}
  - m_RefCount: 1
    m_Data: {fileID: 11400000, guid: 3063cc8d1ae165649ac2b5e1d3205888, type: 2}
  - m_RefCount: 1
    m_Data: {fileID: 11400000, guid: a5a63d25556463b4ea164716ca594035, type: 2}
  - m_RefCount: 1
    m_Data: {fileID: 11400000, guid: 2a88e975fc6a8f14a911faf973dbbeb7, type: 2}
  - m_RefCount: 1
    m_Data: {fileID: 11400000, guid: d22f38ccbf812704886130048eebb692, type: 2}
  - m_RefCount: 1
    m_Data: {fileID: 11400000, guid: 1f898643081db0240a525f2f61eb2325, type: 2}
  - m_RefCount: 1
    m_Data: {fileID: 11400000, guid: 6e213f86b7f3e8e46bd1749192e1bb21, type: 2}
  - m_RefCount: 1
    m_Data: {fileID: 11400000, guid: bde32d285d6aa6946943543601383fd6, type: 2}
  - m_RefCount: 1
    m_Data: {fileID: 11400000, guid: 22c7e93f97a9fed4e95d30cd0a519e18, type: 2}
  - m_RefCount: 1
    m_Data: {fileID: 11400000, guid: 6868f84da15ac234d8cfe642db524983, type: 2}
  - m_RefCount: 1
    m_Data: {fileID: 11400000, guid: bb4f7f24b57c5084ba14461f5bf1cc4c, type: 2}
  - m_RefCount: 1
    m_Data: {fileID: 11400000, guid: b96b01a11ac24d2469bf0676f24a6fc6, type: 2}
  - m_RefCount: 1
    m_Data: {fileID: 11400000, guid: f7078ad97af15854f8f1a1ad8df2d307, type: 2}
  - m_RefCount: 1
    m_Data: {fileID: 11400000, guid: 30d5abedac3bca24db29cac8c899daae, type: 2}
  - m_RefCount: 1
    m_Data: {fileID: 11400000, guid: a37d26f47f0637248a8c445b4804145a, type: 2}
  - m_RefCount: 1
    m_Data: {fileID: 11400000, guid: 72409bd912398d7488650a9cb97e60fc, type: 2}
  - m_RefCount: 1
    m_Data: {fileID: 11400000, guid: 4713ceda9e62cbd47b0a3cdc5e20ad87, type: 2}
  - m_RefCount: 1
    m_Data: {fileID: 11400000, guid: be0f6983e92e5ca418599bb43ef5e4de, type: 2}
  - m_RefCount: 1
    m_Data: {fileID: 11400000, guid: c981b46a63b131c4aa5379f7a06c2f16, type: 2}
  - m_RefCount: 1
    m_Data: {fileID: 11400000, guid: 041d618ffd283234a9d60c6be07e07fa, type: 2}
  - m_RefCount: 1
    m_Data: {fileID: 11400000, guid: ba97e30e640cbb1438be818b75397443, type: 2}
  - m_RefCount: 1
    m_Data: {fileID: 11400000, guid: 76aaf2f26557ba8439e7dfe1f74ae8f8, type: 2}
  - m_RefCount: 1
    m_Data: {fileID: 11400000, guid: 553f73c10d873304d9f7d40c7c141558, type: 2}
  - m_RefCount: 1
    m_Data: {fileID: 11400000, guid: 24416c4412a68e34dad1a43a9e9c85bb, type: 2}
  - m_RefCount: 1
    m_Data: {fileID: 11400000, guid: d667c563c25e798418b8df95caf98c8d, type: 2}
  - m_RefCount: 1
    m_Data: {fileID: 11400000, guid: e4061000286086c468e6ae4c0b37f19c, type: 2}
  - m_RefCount: 1
    m_Data: {fileID: 11400000, guid: 381db4b4ee5142e4fb5656013de109fb, type: 2}
  - m_RefCount: 1
    m_Data: {fileID: 11400000, guid: 114025d60f211d648b33921968a43c80, type: 2}
  - m_RefCount: 1
    m_Data: {fileID: 11400000, guid: 2e42535b32f2dc44490cc0f5849ad348, type: 2}
  - m_RefCount: 1
    m_Data: {fileID: 11400000, guid: 8b1b26fdf872d9040a0043f2f28ca2a6, type: 2}
  - m_RefCount: 1
    m_Data: {fileID: 11400000, guid: 26b9c29c9a5431c44b01ed7a479fbef2, type: 2}
  - m_RefCount: 1
    m_Data: {fileID: 11400000, guid: 3cdda241fbffb75448f44a8ccc30b498, type: 2}
  - m_RefCount: 1
    m_Data: {fileID: 11400000, guid: c7177171c16255b4791e310b4add5e27, type: 2}
  - m_RefCount: 1
    m_Data: {fileID: 11400000, guid: fa99d85774e960b4dba76d61deecfc88, type: 2}
  - m_RefCount: 1
    m_Data: {fileID: 11400000, guid: d8f17a2654fe2dc42a8e17efb9fe77fc, type: 2}
  - m_RefCount: 1
    m_Data: {fileID: 11400000, guid: 7975183433dcd5b4dbcb362af6378619, type: 2}
  - m_RefCount: 1
    m_Data: {fileID: 11400000, guid: 6b38d05ba81dbe643b28641c8b1ce89d, type: 2}
  - m_RefCount: 1
    m_Data: {fileID: 11400000, guid: fe5613a30d4b30c4d8059fed86e72eb3, type: 2}
  - m_RefCount: 1
    m_Data: {fileID: 11400000, guid: 1701a04957efa7143aa0a4e9357ce838, type: 2}
  - m_RefCount: 1
    m_Data: {fileID: 11400000, guid: f97621ba661081e45b80b89dd5b4a1d1, type: 2}
  - m_RefCount: 1
    m_Data: {fileID: 11400000, guid: 748e256a9f1eb774cbb234427381cfdd, type: 2}
  - m_RefCount: 1
    m_Data: {fileID: 11400000, guid: 562fe40d1fbdf6140a4d737d661feecd, type: 2}
  - m_RefCount: 1
    m_Data: {fileID: 11400000, guid: c63a4402e87e8924099761e95df465e8, type: 2}
  - m_RefCount: 1
    m_Data: {fileID: 11400000, guid: 1df8f3bd71d824e4da08b10a55f18ca7, type: 2}
  - m_RefCount: 1
    m_Data: {fileID: 11400000, guid: b5ee43220d7a88c45ab26bcf961df871, type: 2}
  - m_RefCount: 1
    m_Data: {fileID: 11400000, guid: a8f10b1b3ee665f4e9bd06459f2688b3, type: 2}
  - m_RefCount: 1
    m_Data: {fileID: 11400000, guid: 5aa963f2b4043e747a14405ba93e3afc, type: 2}
  - m_RefCount: 1
    m_Data: {fileID: 11400000, guid: e3e5d744b538fd9478c0f18e0c5b6e2a, type: 2}
  - m_RefCount: 1
    m_Data: {fileID: 11400000, guid: 41c6e600f8b67844086ac2f05563851b, type: 2}
  - m_RefCount: 1
    m_Data: {fileID: 11400000, guid: 5598d4e5b20b6e14d9bb4542718e058f, type: 2}
  - m_RefCount: 1
    m_Data: {fileID: 11400000, guid: 528f5e06fd10eca448b0d542f8c5f5c1, type: 2}
  - m_RefCount: 1
    m_Data: {fileID: 11400000, guid: d7cefbf95f2f8f94e8b4d7795630f51e, type: 2}
  - m_RefCount: 1
    m_Data: {fileID: 11400000, guid: f29b9a0ea1d282b42b2109c0985c3dc5, type: 2}
  - m_RefCount: 1
    m_Data: {fileID: 11400000, guid: 1bf67a7a37f511740961d098b2d49cff, type: 2}
  - m_RefCount: 1
    m_Data: {fileID: 11400000, guid: 47bd4b399c92235439a8c11808666b6c, type: 2}
  - m_RefCount: 1
    m_Data: {fileID: 11400000, guid: dd23090a94f0b704baa9fbdd80874d3c, type: 2}
  - m_RefCount: 1
    m_Data: {fileID: 11400000, guid: efe4f6289b5a9b14d9fa5622d5c76ef3, type: 2}
  - m_RefCount: 1
    m_Data: {fileID: 11400000, guid: 1e6a48a2062d3814aaf2743274e0c96d, type: 2}
  - m_RefCount: 1
    m_Data: {fileID: 11400000, guid: 19ef8f457ce1b8443887f0c5513d07fe, type: 2}
  - m_RefCount: 1
    m_Data: {fileID: 11400000, guid: e9aa7661f9a384e4cb86c8c8bfed178e, type: 2}
  - m_RefCount: 1
    m_Data: {fileID: 11400000, guid: 9b1fbdc1ef4d34a49a50176e1a0a051b, type: 2}
  - m_RefCount: 1
    m_Data: {fileID: 11400000, guid: dd72a6d3976494044b6a2906484bf655, type: 2}
  - m_RefCount: 1
    m_Data: {fileID: 11400000, guid: c82c0668f41a40f44aac9ff4917bb3d8, type: 2}
  - m_RefCount: 1
    m_Data: {fileID: 11400000, guid: 5232f08d76619b842aa0fd3cf1bd76ee, type: 2}
  - m_RefCount: 1
    m_Data: {fileID: 11400000, guid: 993482c034ef60840bc5792e7eb76625, type: 2}
  - m_RefCount: 1
    m_Data: {fileID: 11400000, guid: 011ca4765aabab34ab0c5e6ca083c772, type: 2}
  - m_RefCount: 1
    m_Data: {fileID: 11400000, guid: 3283c5ce8819aab4baee30bfd37639f8, type: 2}
  - m_RefCount: 1
    m_Data: {fileID: 11400000, guid: 71680c8f475b5e3468e7dbd68264f11a, type: 2}
  - m_RefCount: 1
    m_Data: {fileID: 11400000, guid: cada98b8a7d2bf34aa964944bc91fba9, type: 2}
  - m_RefCount: 1
    m_Data: {fileID: 11400000, guid: f50b149168391d541a64b070ecca2c14, type: 2}
  - m_RefCount: 1
    m_Data: {fileID: 11400000, guid: 16d6f6271d2f72742ab6844cb9ecbcc8, type: 2}
  - m_RefCount: 1
    m_Data: {fileID: 11400000, guid: ddbb9cc73f549ff46812f794056204d4, type: 2}
  - m_RefCount: 1
    m_Data: {fileID: 11400000, guid: ad50930ddd8a2e748a1ce8be81aba160, type: 2}
  - m_RefCount: 1
    m_Data: {fileID: 11400000, guid: ab59ff5ec26ff004ca343ada7ee45cae, type: 2}
  - m_RefCount: 1
    m_Data: {fileID: 11400000, guid: 0540b3b2157ae4e42b72758a42a10b98, type: 2}
  - m_RefCount: 1
    m_Data: {fileID: 11400000, guid: c3d523e6bb1e85c478c02c031710944b, type: 2}
  - m_RefCount: 1
    m_Data: {fileID: 11400000, guid: 7be662b45dc8835488790c0170a49179, type: 2}
  - m_RefCount: 1
    m_Data: {fileID: 11400000, guid: 9e0cd194545a08d44a64bfe90bce93bf, type: 2}
  - m_RefCount: 1
    m_Data: {fileID: 11400000, guid: 09eb2c4aef8f999479455611beeed59c, type: 2}
  - m_RefCount: 1
    m_Data: {fileID: 11400000, guid: 4a8993962d062da48a825d1e4a3551c3, type: 2}
  - m_RefCount: 1
    m_Data: {fileID: 11400000, guid: 2a985b3f2a3c378459b08a72f4f578fc, type: 2}
  - m_RefCount: 1
    m_Data: {fileID: 11400000, guid: 5bf44329565fcac479f2c4fb9fb1e11f, type: 2}
  - m_RefCount: 1
    m_Data: {fileID: 11400000, guid: 8ac76aabc235c3344bc9540b47b9487c, type: 2}
  - m_RefCount: 1
    m_Data: {fileID: 11400000, guid: 1c24eee46578d1d4d96166313bd65571, type: 2}
  - m_RefCount: 1
    m_Data: {fileID: 11400000, guid: 0b4a842e353eb0c4f99e614dd533a0f0, type: 2}
  - m_RefCount: 1
    m_Data: {fileID: 11400000, guid: 30335325249dc034890cc3b16e343427, type: 2}
  - m_RefCount: 1
    m_Data: {fileID: 11400000, guid: f04d4b74ba51d664e8771637a4fcd5c4, type: 2}
  - m_RefCount: 1
    m_Data: {fileID: 11400000, guid: 02b0531419c228d499767c222f773863, type: 2}
  - m_RefCount: 1
    m_Data: {fileID: 11400000, guid: f92fccee3657d6d428bdadda00a4b045, type: 2}
  - m_RefCount: 1
    m_Data: {fileID: 11400000, guid: 18c2bec4db8952d4fb3825f2f2347dda, type: 2}
  - m_RefCount: 1
    m_Data: {fileID: 11400000, guid: 68b3b30b238f8cb4ead053ddfdb3dfdc, type: 2}
  - m_RefCount: 1
    m_Data: {fileID: 11400000, guid: c2bc6709d05ed2f408e410b66804c813, type: 2}
  - m_RefCount: 1
    m_Data: {fileID: 11400000, guid: 6b15b0850b591174b8fa12144e2b9868, type: 2}
  - m_RefCount: 1
    m_Data: {fileID: 11400000, guid: 42a514b00828b5e4bac09ea062683e38, type: 2}
  - m_RefCount: 1
    m_Data: {fileID: 11400000, guid: 2697c432f1e6cf94d886aebff22dfe7d, type: 2}
  - m_RefCount: 1
    m_Data: {fileID: 11400000, guid: bb050ed7b5f383f4ebb553b7a162f15d, type: 2}
  - m_RefCount: 1
    m_Data: {fileID: 11400000, guid: 87e3ea5f6c08c634b99f556ce5c23782, type: 2}
  - m_RefCount: 1
    m_Data: {fileID: 11400000, guid: 9d67453861d49e34d9b43f2887d2e82a, type: 2}
  - m_RefCount: 1
    m_Data: {fileID: 11400000, guid: 852331962fd89c74988f11fc71d07ea2, type: 2}
  - m_RefCount: 1
    m_Data: {fileID: 11400000, guid: 9fe19a2fe5f7ee9468fb5468692ec413, type: 2}
  - m_RefCount: 1
    m_Data: {fileID: 11400000, guid: c2eb0c50ed15893429de0f884f51779e, type: 2}
  - m_RefCount: 1
    m_Data: {fileID: 11400000, guid: 089c5ee385e67ae4fadd07091ee44b4a, type: 2}
  - m_RefCount: 1
    m_Data: {fileID: 11400000, guid: 05781b840e9286d4bae8b017a6016fca, type: 2}
  - m_RefCount: 1
    m_Data: {fileID: 11400000, guid: d7359ed7be227ea45a2d31bc7c90948e, type: 2}
  - m_RefCount: 1
    m_Data: {fileID: 11400000, guid: 9e978bde1fa798345a6e38094219c5af, type: 2}
  - m_RefCount: 1
    m_Data: {fileID: 11400000, guid: 64353fb2e37157b4c92533494578c22f, type: 2}
  - m_RefCount: 1
    m_Data: {fileID: 11400000, guid: 6f19c09ebd9910c428e339f2ab7ed11c, type: 2}
  - m_RefCount: 1
    m_Data: {fileID: 11400000, guid: 2011930c8c0fafe45b005882a64236bb, type: 2}
  - m_RefCount: 1
    m_Data: {fileID: 11400000, guid: adf40e73cdcd79147b699c412eea013f, type: 2}
  - m_RefCount: 1
    m_Data: {fileID: 11400000, guid: 60af9537dd0a1cc4bbf6c8a0b20053b9, type: 2}
  - m_RefCount: 1
    m_Data: {fileID: 11400000, guid: 8a6c07de19c93fc43858113113d7e294, type: 2}
  - m_RefCount: 1
    m_Data: {fileID: 11400000, guid: 5c7eac8279d725144926992e55b1926b, type: 2}
  - m_RefCount: 1
    m_Data: {fileID: 11400000, guid: 51ca5e814b14f4242a23d8abc1fd0d23, type: 2}
  - m_RefCount: 1
    m_Data: {fileID: 11400000, guid: 3b80b81319ae08a4b98a30d841bf49dd, type: 2}
  - m_RefCount: 1
    m_Data: {fileID: 11400000, guid: 27706b2b35aea3741a7838ebe8cd7d85, type: 2}
  - m_RefCount: 1
    m_Data: {fileID: 11400000, guid: b9cf868eb921ac24cbd37809aa5283dd, type: 2}
  - m_RefCount: 1
    m_Data: {fileID: 11400000, guid: 7605f38d2be5b6b4f9b4facd8f9b816d, type: 2}
  - m_RefCount: 1
    m_Data: {fileID: 11400000, guid: 0060a88f8f3460b49a1c65056bbca983, type: 2}
  - m_RefCount: 1
    m_Data: {fileID: 11400000, guid: 075cdb95ba33ccb40a014f84e7f10752, type: 2}
  - m_RefCount: 1
    m_Data: {fileID: 11400000, guid: ad88b2dc379e7d74c9d4aa40f21644f5, type: 2}
  - m_RefCount: 1
    m_Data: {fileID: 11400000, guid: 8ec45d4b2c6693a459092b1ddc1f54ec, type: 2}
  - m_RefCount: 1
    m_Data: {fileID: 11400000, guid: 120cdaf4d3c86144899382455e410b39, type: 2}
  - m_RefCount: 1
    m_Data: {fileID: 11400000, guid: dff4e6770c0260a4499f28abf72b1022, type: 2}
  - m_RefCount: 1
    m_Data: {fileID: 11400000, guid: 9f322b0f47794a1499111ae5e69e10fc, type: 2}
  - m_RefCount: 1
    m_Data: {fileID: 11400000, guid: 532af5c4d5907684f849fad5e5905065, type: 2}
  - m_RefCount: 1
    m_Data: {fileID: 11400000, guid: 0c5de85404fdaf54aadddc098ee18785, type: 2}
  - m_RefCount: 1
    m_Data: {fileID: 11400000, guid: 3f7c0b21cf1650b4b87c144ab007118a, type: 2}
  - m_RefCount: 1
    m_Data: {fileID: 11400000, guid: 294e70bb685b4444dba1f5df4db92131, type: 2}
  - m_RefCount: 1
    m_Data: {fileID: 11400000, guid: 5402056cae025d449bd246edd150a08a, type: 2}
  - m_RefCount: 1
    m_Data: {fileID: 11400000, guid: 4c37ba78c71de31438a56cbef48c6aa9, type: 2}
  - m_RefCount: 1
    m_Data: {fileID: 11400000, guid: b1fd2a572a0144a41a3bbbf77fd1f04c, type: 2}
  - m_RefCount: 1
    m_Data: {fileID: 11400000, guid: f231d17b530666d4f8c94881fe485da6, type: 2}
  - m_RefCount: 1
    m_Data: {fileID: 11400000, guid: 1d79c0bb7cbdf4b49893218324914581, type: 2}
  - m_RefCount: 1
    m_Data: {fileID: 11400000, guid: 64e0f17e26c342e4fa6c1b3286b21d04, type: 2}
  - m_RefCount: 1
    m_Data: {fileID: 11400000, guid: 89e4de330f2b0364abf485fcd4d6eaf7, type: 2}
  - m_RefCount: 1
    m_Data: {fileID: 11400000, guid: dfe6e6ab0fb45de41a7c3ceabf91f0d7, type: 2}
  - m_RefCount: 1
    m_Data: {fileID: 11400000, guid: 8c49a388af1fe5541acd5fee324821cc, type: 2}
  - m_RefCount: 1
    m_Data: {fileID: 11400000, guid: cb338b9a1be86cf4fbfd6dfbf96b1a92, type: 2}
  - m_RefCount: 1
    m_Data: {fileID: 11400000, guid: 7d04580f728bd164bb98eb84dcf576a7, type: 2}
  - m_RefCount: 1
    m_Data: {fileID: 11400000, guid: 737194479d6499347bda5bbbd4287e88, type: 2}
  - m_RefCount: 1
    m_Data: {fileID: 11400000, guid: b834b2227c55e5f469d266681bfe101c, type: 2}
  - m_RefCount: 1
    m_Data: {fileID: 11400000, guid: 0be834ba3d5cb7146bfe369fad64034c, type: 2}
  - m_RefCount: 1
    m_Data: {fileID: 11400000, guid: 25ee16e368e9f394da53cb8b2b595b72, type: 2}
  - m_RefCount: 1
    m_Data: {fileID: 11400000, guid: 44d8517c77b036047ad28e832db02234, type: 2}
  - m_RefCount: 1
    m_Data: {fileID: 11400000, guid: e13ec82b89308a34390aab9642699e45, type: 2}
  - m_RefCount: 1
    m_Data: {fileID: 11400000, guid: f5305c165b841c145841eb2b1de738f1, type: 2}
  - m_RefCount: 1
    m_Data: {fileID: 11400000, guid: 32097e61a7e79e243a16b6bf78281320, type: 2}
  - m_RefCount: 1
    m_Data: {fileID: 11400000, guid: 9c84067c8cfa03c468b652c284f2bdd7, type: 2}
  - m_RefCount: 1
    m_Data: {fileID: 11400000, guid: 7e5edf8fd45dd29428f0c3c2c15029d0, type: 2}
  - m_RefCount: 1
    m_Data: {fileID: 11400000, guid: a52aa149f56337644acf2bdbcd36bad2, type: 2}
  - m_RefCount: 1
    m_Data: {fileID: 11400000, guid: bc997a4b54953594ebfb6e5c8ba3eddd, type: 2}
  - m_RefCount: 1
    m_Data: {fileID: 11400000, guid: 0e718ab5e71f947488ee0b3081d91036, type: 2}
  - m_RefCount: 1
    m_Data: {fileID: 11400000, guid: 9b138d15de049a846806240f891dfab8, type: 2}
  - m_RefCount: 1
    m_Data: {fileID: 11400000, guid: 46535e6b848a26048a0c7cd03abd46a3, type: 2}
  - m_RefCount: 1
    m_Data: {fileID: 11400000, guid: 0e08c74331f0b4349a11ba45ff6d4d1b, type: 2}
  m_TileSpriteArray:
  - m_RefCount: 1
    m_Data: {fileID: -6407772713402401959, guid: 5c84b1e5c1d675b41ba7a5ba3377503f,
      type: 3}
  - m_RefCount: 1
    m_Data: {fileID: 5340006420255305885, guid: 5c84b1e5c1d675b41ba7a5ba3377503f,
      type: 3}
  - m_RefCount: 1
    m_Data: {fileID: -3660240866022087686, guid: 5c84b1e5c1d675b41ba7a5ba3377503f,
      type: 3}
  - m_RefCount: 1
    m_Data: {fileID: -3031602493707228300, guid: 5c84b1e5c1d675b41ba7a5ba3377503f,
      type: 3}
  - m_RefCount: 1
    m_Data: {fileID: -172247612764205243, guid: 5c84b1e5c1d675b41ba7a5ba3377503f,
      type: 3}
  - m_RefCount: 1
    m_Data: {fileID: -6484363879077382043, guid: 5c84b1e5c1d675b41ba7a5ba3377503f,
      type: 3}
  - m_RefCount: 1
    m_Data: {fileID: -6937358322877616104, guid: 5c84b1e5c1d675b41ba7a5ba3377503f,
      type: 3}
  - m_RefCount: 1
    m_Data: {fileID: -4665170321974036199, guid: 5c84b1e5c1d675b41ba7a5ba3377503f,
      type: 3}
  - m_RefCount: 1
    m_Data: {fileID: 8285016102509295333, guid: 5c84b1e5c1d675b41ba7a5ba3377503f,
      type: 3}
  - m_RefCount: 1
    m_Data: {fileID: 632811197452920695, guid: 5c84b1e5c1d675b41ba7a5ba3377503f, type: 3}
  - m_RefCount: 1
    m_Data: {fileID: -4723416184913431054, guid: 5c84b1e5c1d675b41ba7a5ba3377503f,
      type: 3}
  - m_RefCount: 1
    m_Data: {fileID: 4671763636491641915, guid: 5c84b1e5c1d675b41ba7a5ba3377503f,
      type: 3}
  - m_RefCount: 1
    m_Data: {fileID: 715645273976197306, guid: 5c84b1e5c1d675b41ba7a5ba3377503f, type: 3}
  - m_RefCount: 1
    m_Data: {fileID: 938096658371382611, guid: 5c84b1e5c1d675b41ba7a5ba3377503f, type: 3}
  - m_RefCount: 1
    m_Data: {fileID: -5952514711567295794, guid: 5c84b1e5c1d675b41ba7a5ba3377503f,
      type: 3}
  - m_RefCount: 1
    m_Data: {fileID: 6291333254451694048, guid: 5c84b1e5c1d675b41ba7a5ba3377503f,
      type: 3}
  - m_RefCount: 1
    m_Data: {fileID: -8000982340906150341, guid: 5c84b1e5c1d675b41ba7a5ba3377503f,
      type: 3}
  - m_RefCount: 1
    m_Data: {fileID: 5373540985584688024, guid: 5c84b1e5c1d675b41ba7a5ba3377503f,
      type: 3}
  - m_RefCount: 1
    m_Data: {fileID: 8873803710812760299, guid: 5c84b1e5c1d675b41ba7a5ba3377503f,
      type: 3}
  - m_RefCount: 1
    m_Data: {fileID: -9115945761009722546, guid: 5c84b1e5c1d675b41ba7a5ba3377503f,
      type: 3}
  - m_RefCount: 1
    m_Data: {fileID: -8594881847150149340, guid: 5c84b1e5c1d675b41ba7a5ba3377503f,
      type: 3}
  - m_RefCount: 1
    m_Data: {fileID: -2196249997117488030, guid: 5c84b1e5c1d675b41ba7a5ba3377503f,
      type: 3}
  - m_RefCount: 1
    m_Data: {fileID: -5542558008932164730, guid: 5c84b1e5c1d675b41ba7a5ba3377503f,
      type: 3}
  - m_RefCount: 1
    m_Data: {fileID: 3994142044280309398, guid: 5c84b1e5c1d675b41ba7a5ba3377503f,
      type: 3}
  - m_RefCount: 1
    m_Data: {fileID: 1397657983218577278, guid: 5c84b1e5c1d675b41ba7a5ba3377503f,
      type: 3}
  - m_RefCount: 1
    m_Data: {fileID: -5299543075704945543, guid: 5c84b1e5c1d675b41ba7a5ba3377503f,
      type: 3}
  - m_RefCount: 1
    m_Data: {fileID: 7471957507673401106, guid: 5c84b1e5c1d675b41ba7a5ba3377503f,
      type: 3}
  - m_RefCount: 1
    m_Data: {fileID: -4379233246968791251, guid: 5c84b1e5c1d675b41ba7a5ba3377503f,
      type: 3}
  - m_RefCount: 1
    m_Data: {fileID: -3515090944904320775, guid: 5c84b1e5c1d675b41ba7a5ba3377503f,
      type: 3}
  - m_RefCount: 1
    m_Data: {fileID: -3438195115552189226, guid: 5c84b1e5c1d675b41ba7a5ba3377503f,
      type: 3}
  - m_RefCount: 1
    m_Data: {fileID: -2610440317645429688, guid: 5c84b1e5c1d675b41ba7a5ba3377503f,
      type: 3}
  - m_RefCount: 1
    m_Data: {fileID: -2806810967884856105, guid: 5c84b1e5c1d675b41ba7a5ba3377503f,
      type: 3}
  - m_RefCount: 1
    m_Data: {fileID: 7298000501565552139, guid: 5c84b1e5c1d675b41ba7a5ba3377503f,
      type: 3}
  - m_RefCount: 1
    m_Data: {fileID: -1971351668945710372, guid: 5c84b1e5c1d675b41ba7a5ba3377503f,
      type: 3}
  - m_RefCount: 1
    m_Data: {fileID: 3330278889610725932, guid: 5c84b1e5c1d675b41ba7a5ba3377503f,
      type: 3}
  - m_RefCount: 1
    m_Data: {fileID: 6539334877047264326, guid: 5c84b1e5c1d675b41ba7a5ba3377503f,
      type: 3}
  - m_RefCount: 1
    m_Data: {fileID: -8675541491921273912, guid: 5c84b1e5c1d675b41ba7a5ba3377503f,
      type: 3}
  - m_RefCount: 1
    m_Data: {fileID: 5963934662614294004, guid: 5c84b1e5c1d675b41ba7a5ba3377503f,
      type: 3}
  - m_RefCount: 1
    m_Data: {fileID: 1050598282555121277, guid: 5c84b1e5c1d675b41ba7a5ba3377503f,
      type: 3}
  - m_RefCount: 1
    m_Data: {fileID: 3268675256125745846, guid: 5c84b1e5c1d675b41ba7a5ba3377503f,
      type: 3}
  - m_RefCount: 1
    m_Data: {fileID: 674656090716359192, guid: 5c84b1e5c1d675b41ba7a5ba3377503f, type: 3}
  - m_RefCount: 1
    m_Data: {fileID: -4467224791623213273, guid: 5c84b1e5c1d675b41ba7a5ba3377503f,
      type: 3}
  - m_RefCount: 1
    m_Data: {fileID: -2066992355452065951, guid: 5c84b1e5c1d675b41ba7a5ba3377503f,
      type: 3}
  - m_RefCount: 1
    m_Data: {fileID: 3108490729272760729, guid: 5c84b1e5c1d675b41ba7a5ba3377503f,
      type: 3}
  - m_RefCount: 1
    m_Data: {fileID: -210829120458157333, guid: 5c84b1e5c1d675b41ba7a5ba3377503f,
      type: 3}
  - m_RefCount: 1
    m_Data: {fileID: 929381819395523932, guid: 5c84b1e5c1d675b41ba7a5ba3377503f, type: 3}
  - m_RefCount: 1
    m_Data: {fileID: -83487991624624761, guid: 5c84b1e5c1d675b41ba7a5ba3377503f, type: 3}
  - m_RefCount: 1
    m_Data: {fileID: -4735021571341435634, guid: 5c84b1e5c1d675b41ba7a5ba3377503f,
      type: 3}
  - m_RefCount: 1
    m_Data: {fileID: -8194672735912356292, guid: 5c84b1e5c1d675b41ba7a5ba3377503f,
      type: 3}
  - m_RefCount: 1
    m_Data: {fileID: -6875669940895347489, guid: 5c84b1e5c1d675b41ba7a5ba3377503f,
      type: 3}
  - m_RefCount: 1
    m_Data: {fileID: 2701894285042235513, guid: 5c84b1e5c1d675b41ba7a5ba3377503f,
      type: 3}
  - m_RefCount: 1
    m_Data: {fileID: 7354819767241589694, guid: 5c84b1e5c1d675b41ba7a5ba3377503f,
      type: 3}
  - m_RefCount: 1
    m_Data: {fileID: 7500215691101178881, guid: 5c84b1e5c1d675b41ba7a5ba3377503f,
      type: 3}
  - m_RefCount: 1
    m_Data: {fileID: -2600237539495205148, guid: 5c84b1e5c1d675b41ba7a5ba3377503f,
      type: 3}
  - m_RefCount: 1
    m_Data: {fileID: 423918074823741026, guid: 5c84b1e5c1d675b41ba7a5ba3377503f, type: 3}
  - m_RefCount: 1
    m_Data: {fileID: 1728582383445430750, guid: 5c84b1e5c1d675b41ba7a5ba3377503f,
      type: 3}
  - m_RefCount: 1
    m_Data: {fileID: 7271974640264388494, guid: 5c84b1e5c1d675b41ba7a5ba3377503f,
      type: 3}
  - m_RefCount: 1
    m_Data: {fileID: 6849605041401448728, guid: 5c84b1e5c1d675b41ba7a5ba3377503f,
      type: 3}
  - m_RefCount: 1
    m_Data: {fileID: -6614951579210248688, guid: 5c84b1e5c1d675b41ba7a5ba3377503f,
      type: 3}
  - m_RefCount: 1
    m_Data: {fileID: -6734815555074607574, guid: 5c84b1e5c1d675b41ba7a5ba3377503f,
      type: 3}
  - m_RefCount: 1
    m_Data: {fileID: 1174964182395916884, guid: 5c84b1e5c1d675b41ba7a5ba3377503f,
      type: 3}
  - m_RefCount: 1
    m_Data: {fileID: -5398106144758011425, guid: 5c84b1e5c1d675b41ba7a5ba3377503f,
      type: 3}
  - m_RefCount: 1
    m_Data: {fileID: -5206653143484739439, guid: 5c84b1e5c1d675b41ba7a5ba3377503f,
      type: 3}
  - m_RefCount: 1
    m_Data: {fileID: -7046114690025375335, guid: 5c84b1e5c1d675b41ba7a5ba3377503f,
      type: 3}
  - m_RefCount: 1
    m_Data: {fileID: -4384419697035586017, guid: 5c84b1e5c1d675b41ba7a5ba3377503f,
      type: 3}
  - m_RefCount: 1
    m_Data: {fileID: -203013174166755684, guid: 5c84b1e5c1d675b41ba7a5ba3377503f,
      type: 3}
  - m_RefCount: 1
    m_Data: {fileID: -363591699377576415, guid: 5c84b1e5c1d675b41ba7a5ba3377503f,
      type: 3}
  - m_RefCount: 1
    m_Data: {fileID: -5219724885001952654, guid: 5c84b1e5c1d675b41ba7a5ba3377503f,
      type: 3}
  - m_RefCount: 1
    m_Data: {fileID: 1826563196600322534, guid: 5c84b1e5c1d675b41ba7a5ba3377503f,
      type: 3}
  - m_RefCount: 1
    m_Data: {fileID: -8119222545688373295, guid: 5c84b1e5c1d675b41ba7a5ba3377503f,
      type: 3}
  - m_RefCount: 1
    m_Data: {fileID: 1356806724430469503, guid: 5c84b1e5c1d675b41ba7a5ba3377503f,
      type: 3}
  - m_RefCount: 1
    m_Data: {fileID: -7940186536312482079, guid: 5c84b1e5c1d675b41ba7a5ba3377503f,
      type: 3}
  - m_RefCount: 1
    m_Data: {fileID: 1645457530478157692, guid: 5c84b1e5c1d675b41ba7a5ba3377503f,
      type: 3}
  - m_RefCount: 1
    m_Data: {fileID: 3069314312594938265, guid: 5c84b1e5c1d675b41ba7a5ba3377503f,
      type: 3}
  - m_RefCount: 1
    m_Data: {fileID: -7210650270368417558, guid: 5c84b1e5c1d675b41ba7a5ba3377503f,
      type: 3}
  - m_RefCount: 1
    m_Data: {fileID: 1195029989885311443, guid: 5c84b1e5c1d675b41ba7a5ba3377503f,
      type: 3}
  - m_RefCount: 1
    m_Data: {fileID: 4368861743670242467, guid: 5c84b1e5c1d675b41ba7a5ba3377503f,
      type: 3}
  - m_RefCount: 1
    m_Data: {fileID: -4445616253006611546, guid: 5c84b1e5c1d675b41ba7a5ba3377503f,
      type: 3}
  - m_RefCount: 1
    m_Data: {fileID: -6049133531468865377, guid: 5c84b1e5c1d675b41ba7a5ba3377503f,
      type: 3}
  - m_RefCount: 1
    m_Data: {fileID: 8042256772138438571, guid: 5c84b1e5c1d675b41ba7a5ba3377503f,
      type: 3}
  - m_RefCount: 1
    m_Data: {fileID: 490972013954755038, guid: 5c84b1e5c1d675b41ba7a5ba3377503f, type: 3}
  - m_RefCount: 1
    m_Data: {fileID: -281453996682768314, guid: 5c84b1e5c1d675b41ba7a5ba3377503f,
      type: 3}
  - m_RefCount: 1
    m_Data: {fileID: -1713117942981793550, guid: 5c84b1e5c1d675b41ba7a5ba3377503f,
      type: 3}
  - m_RefCount: 1
    m_Data: {fileID: -8005885042407166502, guid: 5c84b1e5c1d675b41ba7a5ba3377503f,
      type: 3}
  - m_RefCount: 1
    m_Data: {fileID: -7789130647713168720, guid: 5c84b1e5c1d675b41ba7a5ba3377503f,
      type: 3}
  - m_RefCount: 1
    m_Data: {fileID: 342482456282683248, guid: 5c84b1e5c1d675b41ba7a5ba3377503f, type: 3}
  - m_RefCount: 1
    m_Data: {fileID: 1082601745400820809, guid: 5c84b1e5c1d675b41ba7a5ba3377503f,
      type: 3}
  - m_RefCount: 1
    m_Data: {fileID: -7847307091893962213, guid: 5c84b1e5c1d675b41ba7a5ba3377503f,
      type: 3}
  - m_RefCount: 1
    m_Data: {fileID: -9025336139509197178, guid: 5c84b1e5c1d675b41ba7a5ba3377503f,
      type: 3}
  - m_RefCount: 1
    m_Data: {fileID: 774194740977741485, guid: 5c84b1e5c1d675b41ba7a5ba3377503f, type: 3}
  - m_RefCount: 1
    m_Data: {fileID: -8309100537970066571, guid: 5c84b1e5c1d675b41ba7a5ba3377503f,
      type: 3}
  - m_RefCount: 1
    m_Data: {fileID: -1804568002877210158, guid: 5c84b1e5c1d675b41ba7a5ba3377503f,
      type: 3}
  - m_RefCount: 1
    m_Data: {fileID: -7354668286067149653, guid: 5c84b1e5c1d675b41ba7a5ba3377503f,
      type: 3}
  - m_RefCount: 1
    m_Data: {fileID: 2143616592917246729, guid: 5c84b1e5c1d675b41ba7a5ba3377503f,
      type: 3}
  - m_RefCount: 1
    m_Data: {fileID: 1982638663300693878, guid: 5c84b1e5c1d675b41ba7a5ba3377503f,
      type: 3}
  - m_RefCount: 1
    m_Data: {fileID: -593024474795438230, guid: 5c84b1e5c1d675b41ba7a5ba3377503f,
      type: 3}
  - m_RefCount: 1
    m_Data: {fileID: -5335601596545102310, guid: 5c84b1e5c1d675b41ba7a5ba3377503f,
      type: 3}
  - m_RefCount: 1
    m_Data: {fileID: 2191906192242300526, guid: 5c84b1e5c1d675b41ba7a5ba3377503f,
      type: 3}
  - m_RefCount: 1
    m_Data: {fileID: 9150760950918650641, guid: 5c84b1e5c1d675b41ba7a5ba3377503f,
      type: 3}
  - m_RefCount: 1
    m_Data: {fileID: 8873213167697977847, guid: 5c84b1e5c1d675b41ba7a5ba3377503f,
      type: 3}
  - m_RefCount: 1
    m_Data: {fileID: 4580582639722490675, guid: 5c84b1e5c1d675b41ba7a5ba3377503f,
      type: 3}
  - m_RefCount: 1
    m_Data: {fileID: -3627086142587781918, guid: 5c84b1e5c1d675b41ba7a5ba3377503f,
      type: 3}
  - m_RefCount: 1
    m_Data: {fileID: -1834464429097464526, guid: 5c84b1e5c1d675b41ba7a5ba3377503f,
      type: 3}
  - m_RefCount: 1
    m_Data: {fileID: -8120335657626202336, guid: 5c84b1e5c1d675b41ba7a5ba3377503f,
      type: 3}
  - m_RefCount: 1
    m_Data: {fileID: -5309247097957292064, guid: 5c84b1e5c1d675b41ba7a5ba3377503f,
      type: 3}
  - m_RefCount: 1
    m_Data: {fileID: -402033498941432281, guid: 5c84b1e5c1d675b41ba7a5ba3377503f,
      type: 3}
  - m_RefCount: 1
    m_Data: {fileID: 2039520925412158597, guid: 5c84b1e5c1d675b41ba7a5ba3377503f,
      type: 3}
  - m_RefCount: 1
    m_Data: {fileID: -8359327008881311133, guid: 5c84b1e5c1d675b41ba7a5ba3377503f,
      type: 3}
  - m_RefCount: 1
    m_Data: {fileID: 2211429377785674552, guid: 5c84b1e5c1d675b41ba7a5ba3377503f,
      type: 3}
  - m_RefCount: 1
    m_Data: {fileID: 1809432398351093358, guid: 5c84b1e5c1d675b41ba7a5ba3377503f,
      type: 3}
  - m_RefCount: 1
    m_Data: {fileID: -7105449597366919557, guid: 5c84b1e5c1d675b41ba7a5ba3377503f,
      type: 3}
  - m_RefCount: 1
    m_Data: {fileID: -4305847009991089739, guid: 5c84b1e5c1d675b41ba7a5ba3377503f,
      type: 3}
  - m_RefCount: 1
    m_Data: {fileID: 3509858289491932771, guid: 5c84b1e5c1d675b41ba7a5ba3377503f,
      type: 3}
  - m_RefCount: 1
    m_Data: {fileID: -1748517216951224622, guid: 5c84b1e5c1d675b41ba7a5ba3377503f,
      type: 3}
  - m_RefCount: 1
    m_Data: {fileID: 2864359350679927515, guid: 5c84b1e5c1d675b41ba7a5ba3377503f,
      type: 3}
  - m_RefCount: 1
    m_Data: {fileID: 1807059599297570130, guid: 5c84b1e5c1d675b41ba7a5ba3377503f,
      type: 3}
  - m_RefCount: 1
    m_Data: {fileID: -4244610292500040813, guid: 5c84b1e5c1d675b41ba7a5ba3377503f,
      type: 3}
  - m_RefCount: 1
    m_Data: {fileID: -6278665439340738025, guid: 5c84b1e5c1d675b41ba7a5ba3377503f,
      type: 3}
  - m_RefCount: 1
    m_Data: {fileID: 7584638919480628230, guid: 5c84b1e5c1d675b41ba7a5ba3377503f,
      type: 3}
  - m_RefCount: 1
    m_Data: {fileID: -5094890218112487181, guid: 5c84b1e5c1d675b41ba7a5ba3377503f,
      type: 3}
  - m_RefCount: 1
    m_Data: {fileID: 7704479438528150483, guid: 5c84b1e5c1d675b41ba7a5ba3377503f,
      type: 3}
  - m_RefCount: 1
    m_Data: {fileID: -2609671211958654846, guid: 5c84b1e5c1d675b41ba7a5ba3377503f,
      type: 3}
  - m_RefCount: 1
    m_Data: {fileID: 1099792972580552048, guid: 5c84b1e5c1d675b41ba7a5ba3377503f,
      type: 3}
  - m_RefCount: 1
    m_Data: {fileID: 1527805764778249816, guid: 5c84b1e5c1d675b41ba7a5ba3377503f,
      type: 3}
  - m_RefCount: 1
    m_Data: {fileID: 321955493889097243, guid: 5c84b1e5c1d675b41ba7a5ba3377503f, type: 3}
  - m_RefCount: 1
    m_Data: {fileID: 7546042975441161902, guid: 5c84b1e5c1d675b41ba7a5ba3377503f,
      type: 3}
  - m_RefCount: 1
    m_Data: {fileID: -3949975178792881072, guid: 5c84b1e5c1d675b41ba7a5ba3377503f,
      type: 3}
  - m_RefCount: 1
    m_Data: {fileID: -770484430961000475, guid: 5c84b1e5c1d675b41ba7a5ba3377503f,
      type: 3}
  - m_RefCount: 1
    m_Data: {fileID: -1474074131526446330, guid: 5c84b1e5c1d675b41ba7a5ba3377503f,
      type: 3}
  - m_RefCount: 1
    m_Data: {fileID: 1233909915669173625, guid: 5c84b1e5c1d675b41ba7a5ba3377503f,
      type: 3}
  - m_RefCount: 1
    m_Data: {fileID: -5961603304024320792, guid: 5c84b1e5c1d675b41ba7a5ba3377503f,
      type: 3}
  - m_RefCount: 1
    m_Data: {fileID: 3364725278996754734, guid: 5c84b1e5c1d675b41ba7a5ba3377503f,
      type: 3}
  - m_RefCount: 1
    m_Data: {fileID: 1698703442711313974, guid: 5c84b1e5c1d675b41ba7a5ba3377503f,
      type: 3}
  - m_RefCount: 1
    m_Data: {fileID: -5417906904491946949, guid: 5c84b1e5c1d675b41ba7a5ba3377503f,
      type: 3}
  - m_RefCount: 1
    m_Data: {fileID: -6824191096331542740, guid: 5c84b1e5c1d675b41ba7a5ba3377503f,
      type: 3}
  - m_RefCount: 1
    m_Data: {fileID: 4729529721856343326, guid: 5c84b1e5c1d675b41ba7a5ba3377503f,
      type: 3}
  - m_RefCount: 1
    m_Data: {fileID: -4333777914993287396, guid: 5c84b1e5c1d675b41ba7a5ba3377503f,
      type: 3}
  - m_RefCount: 1
    m_Data: {fileID: -238472943776504848, guid: 5c84b1e5c1d675b41ba7a5ba3377503f,
      type: 3}
  - m_RefCount: 1
    m_Data: {fileID: 508754817752647944, guid: 5c84b1e5c1d675b41ba7a5ba3377503f, type: 3}
  - m_RefCount: 1
    m_Data: {fileID: 992001692553938007, guid: 5c84b1e5c1d675b41ba7a5ba3377503f, type: 3}
  - m_RefCount: 1
    m_Data: {fileID: -3394630960632956039, guid: 5c84b1e5c1d675b41ba7a5ba3377503f,
      type: 3}
  - m_RefCount: 1
    m_Data: {fileID: -7992089043797977615, guid: 5c84b1e5c1d675b41ba7a5ba3377503f,
      type: 3}
  - m_RefCount: 1
    m_Data: {fileID: 363350627603320095, guid: 5c84b1e5c1d675b41ba7a5ba3377503f, type: 3}
  - m_RefCount: 1
    m_Data: {fileID: -3266854579302559228, guid: 5c84b1e5c1d675b41ba7a5ba3377503f,
      type: 3}
  - m_RefCount: 1
    m_Data: {fileID: 7249363392159737051, guid: 5c84b1e5c1d675b41ba7a5ba3377503f,
      type: 3}
  - m_RefCount: 1
    m_Data: {fileID: -4034626589509683680, guid: 5c84b1e5c1d675b41ba7a5ba3377503f,
      type: 3}
  - m_RefCount: 1
    m_Data: {fileID: -5746721637048875393, guid: 5c84b1e5c1d675b41ba7a5ba3377503f,
      type: 3}
  - m_RefCount: 1
    m_Data: {fileID: -6492714642004524345, guid: 5c84b1e5c1d675b41ba7a5ba3377503f,
      type: 3}
  - m_RefCount: 1
    m_Data: {fileID: -5221225694420918475, guid: 5c84b1e5c1d675b41ba7a5ba3377503f,
      type: 3}
  - m_RefCount: 1
    m_Data: {fileID: -7868695574269731940, guid: 5c84b1e5c1d675b41ba7a5ba3377503f,
      type: 3}
  - m_RefCount: 1
    m_Data: {fileID: 4605079369296642432, guid: 5c84b1e5c1d675b41ba7a5ba3377503f,
      type: 3}
  - m_RefCount: 1
    m_Data: {fileID: -2140295733709328760, guid: 5c84b1e5c1d675b41ba7a5ba3377503f,
      type: 3}
  - m_RefCount: 1
    m_Data: {fileID: -2927502229234350521, guid: 5c84b1e5c1d675b41ba7a5ba3377503f,
      type: 3}
  - m_RefCount: 1
    m_Data: {fileID: -7639777286475881161, guid: 5c84b1e5c1d675b41ba7a5ba3377503f,
      type: 3}
  - m_RefCount: 1
    m_Data: {fileID: 6744677850816432832, guid: 5c84b1e5c1d675b41ba7a5ba3377503f,
      type: 3}
  - m_RefCount: 1
    m_Data: {fileID: -3551389864610825187, guid: 5c84b1e5c1d675b41ba7a5ba3377503f,
      type: 3}
  m_TileMatrixArray:
  - m_RefCount: 156
    m_Data:
      e00: 1
      e01: 0
      e02: 0
      e03: 0
      e10: 0
      e11: 1
      e12: 0
      e13: 0
      e20: 0
      e21: 0
      e22: 1
      e23: 0
      e30: 0
      e31: 0
      e32: 0
      e33: 1
  m_TileColorArray:
  - m_RefCount: 156
    m_Data: {r: 1, g: 1, b: 1, a: 1}
  m_AnimationFrameRate: 1
  m_Color: {r: 1, g: 1, b: 1, a: 1}
  m_Origin: {x: -3, y: -11, z: 0}
  m_Size: {x: 12, y: 13, z: 1}
  m_TileAnchor: {x: 0.5, y: 0.5, z: 0}
  m_TileOrientation: 0
  m_TileOrientationMatrix:
    e00: 1
    e01: 0
    e02: 0
    e03: 0
    e10: 0
    e11: 1
    e12: 0
    e13: 0
    e20: 0
    e21: 0
    e22: 1
    e23: 0
    e30: 0
    e31: 0
    e32: 0
    e33: 1
--- !u!483693784 &2750711790014769905
TilemapRenderer:
  m_ObjectHideFlags: 0
  m_CorrespondingSourceObject: {fileID: 0}
  m_PrefabInstance: {fileID: 0}
  m_PrefabAsset: {fileID: 0}
  m_GameObject: {fileID: 3253013968279829261}
  m_Enabled: 0
  m_CastShadows: 0
  m_ReceiveShadows: 0
  m_DynamicOccludee: 0
  m_MotionVectors: 1
  m_LightProbeUsage: 0
  m_ReflectionProbeUsage: 0
  m_RenderingLayerMask: 1
  m_RendererPriority: 0
  m_Materials:
  - {fileID: 10754, guid: 0000000000000000f000000000000000, type: 0}
  m_StaticBatchInfo:
    firstSubMesh: 0
    subMeshCount: 0
  m_StaticBatchRoot: {fileID: 0}
  m_ProbeAnchor: {fileID: 0}
  m_LightProbeVolumeOverride: {fileID: 0}
  m_ScaleInLightmap: 1
  m_PreserveUVs: 0
  m_IgnoreNormalsForChartDetection: 0
  m_ImportantGI: 0
  m_StitchLightmapSeams: 1
  m_SelectedEditorRenderState: 0
  m_MinimumChartSize: 4
  m_AutoUVMaxDistance: 0.5
  m_AutoUVMaxAngle: 89
  m_LightmapParameters: {fileID: 0}
  m_SortingLayerID: 0
  m_SortingLayer: 0
  m_SortingOrder: 0
  m_ChunkSize: {x: 32, y: 32, z: 32}
  m_ChunkCullingBounds: {x: 0, y: 0, z: 0}
  m_MaxChunkCount: 16
  m_MaxFrameAge: 16
  m_SortOrder: 0
  m_Mode: 0
  m_DetectChunkCullingBounds: 0
  m_MaskInteraction: 0
--- !u!1 &7461414812341045101
GameObject:
  m_ObjectHideFlags: 0
  m_CorrespondingSourceObject: {fileID: 0}
  m_PrefabInstance: {fileID: 0}
  m_PrefabAsset: {fileID: 0}
  serializedVersion: 6
  m_Component:
  - component: {fileID: 2210753176247447438}
  - component: {fileID: 8785318460059459240}
  m_Layer: 31
  m_Name: tiles
  m_TagString: Untagged
  m_Icon: {fileID: 0}
  m_NavMeshLayer: 0
  m_StaticEditorFlags: 0
  m_IsActive: 1
--- !u!4 &2210753176247447438
Transform:
  m_ObjectHideFlags: 0
  m_CorrespondingSourceObject: {fileID: 0}
  m_PrefabInstance: {fileID: 0}
  m_PrefabAsset: {fileID: 0}
  m_GameObject: {fileID: 7461414812341045101}
  m_LocalRotation: {x: 0, y: 0, z: 0, w: 1}
  m_LocalPosition: {x: 0, y: 0, z: 0}
  m_LocalScale: {x: 1, y: 1, z: 1}
  m_Children:
  - {fileID: 2898300609318710653}
  m_Father: {fileID: 0}
  m_RootOrder: 0
  m_LocalEulerAnglesHint: {x: 0, y: 0, z: 0}
--- !u!156049354 &8785318460059459240
Grid:
  m_ObjectHideFlags: 0
  m_CorrespondingSourceObject: {fileID: 0}
  m_PrefabInstance: {fileID: 0}
  m_PrefabAsset: {fileID: 0}
  m_GameObject: {fileID: 7461414812341045101}
  m_Enabled: 1
  m_CellSize: {x: 1.0588236, y: 1.0588236, z: 0}
  m_CellGap: {x: 0, y: 0, z: 0}
  m_CellLayout: 0
  m_CellSwizzle: 0
--- !u!114 &6323467336352980589
MonoBehaviour:
  m_ObjectHideFlags: 0
  m_CorrespondingSourceObject: {fileID: 0}
  m_PrefabInstance: {fileID: 0}
  m_PrefabAsset: {fileID: 0}
  m_GameObject: {fileID: 0}
  m_Enabled: 1
  m_EditorHideFlags: 0
  m_Script: {fileID: 12395, guid: 0000000000000000e000000000000000, type: 0}
  m_Name: Palette Settings
  m_EditorClassIdentifier: 
  cellSizing: 0
